Drill report for /home/josp/Documents/oskar-pcb_v01/oskar-pcb_v01.kicad_pcb
Created on Sun 07 Apr 2019 18:07:12 CEST

Copper Layer Stackup:
    =============================================================
    L1 :  F.Cu                      front
    L2 :  B.Cu                      back


Drill file 'oskar-pcb_v01.drl' contains
    plated through holes:
    =============================================================
    T1  0.70mm  0.028"  (2 holes)
    T2  0.90mm  0.035"  (3 holes)
    T3  1.00mm  0.039"  (2 holes)
    T4  1.02mm  0.040"  (32 holes)
    T5  1.20mm  0.047"  (20 holes)

    Total plated holes count 59


Drill file 'oskar-pcb_v01-NPTH.drl' contains
    unplated through holes:
    =============================================================
    T1  1.90mm  0.075"  (16 holes)
    T2  3.20mm  0.126"  (3 holes)
    T3  3.40mm  0.134"  (8 holes)

    Total unplated holes count 27
