M48
;DRILL file {KiCad 5.0.2+dfsg1-1} date Sat 24 Aug 2019 10:47:49 CEST
;FORMAT={-:-/ absolute / inch / decimal}
FMAT,2
INCH,TZ
T1C0.0276
T2C0.0354
T3C0.0394
T4C0.0400
T5C0.0472
%
G90
G05
T1
X7.3957Y-2.2004
X7.4744Y-2.2004
T2
X5.3413Y-1.7264
X5.4988Y-1.7264
X5.6563Y-1.7264
T3
X5.7354Y-2.1811
X5.7354Y-2.5811
T4
X5.6319Y-2.1812
X5.6319Y-2.2812
X5.6319Y-2.3812
X5.6319Y-2.4812
X5.6319Y-2.5812
X5.6319Y-2.6812
X5.6319Y-2.7812
X5.6319Y-2.8812
X5.6319Y-2.9812
X5.6319Y-3.0812
X5.6319Y-3.1812
X5.6319Y-3.2812
X5.6319Y-3.3812
X5.6319Y-3.4812
X5.6319Y-3.5812
X5.6319Y-3.6812
X6.5319Y-2.1812
X6.5319Y-2.2812
X6.5319Y-2.3812
X6.5319Y-2.4812
X6.5319Y-2.5812
X6.5319Y-2.6812
X6.5319Y-2.7812
X6.5319Y-2.8812
X6.5319Y-2.9812
X6.5319Y-3.0812
X6.5319Y-3.1812
X6.5319Y-3.2812
X6.5319Y-3.3812
X6.5319Y-3.4812
X6.5319Y-3.5812
X6.5319Y-3.6812
T5
X6.7425Y-3.9391
X6.9394Y-4.0218
X6.7425Y-3.2501
X6.9394Y-3.3328
X6.0142Y-3.2501
X6.211Y-3.3328
X6.0142Y-2.5612
X6.211Y-2.6438
X5.2626Y-1.5591
X5.2626Y-1.7953
X5.735Y-1.5591
X5.735Y-1.7953
X6.7425Y-2.5612
X6.9394Y-2.6438
X6.7425Y-1.8722
X6.9394Y-1.9549
X6.0142Y-1.8722
X6.211Y-1.9549
X6.0142Y-3.9391
X6.211Y-4.0218
T0
M30
