%FSLAX45Y45*%
G04 Gerber Fmt 4.5, Leading zero omitted, Abs format (unit mm)*
G04 Created by KiCad (PCBNEW 4.0.5+dfsg1-4) date Sun Apr  7 18:07:08 2019*
%MOMM*%
%LPD*%
G01*
G04 APERTURE LIST*
%ADD10C,0.127000*%
%ADD11C,0.100000*%
%ADD12C,0.200000*%
%ADD13C,0.300000*%
G04 APERTURE END LIST*
D10*
D11*
X18750110Y-10500360D02*
X18750110Y-6310360D01*
X13178110Y-10500360D02*
X18750110Y-10500360D01*
X13178110Y-9700360D02*
X13178110Y-10500360D01*
X14178111Y-9700360D02*
X13178110Y-9700360D01*
X14178111Y-5625360D02*
X14178111Y-9700360D01*
X13170110Y-5625360D02*
X14178111Y-5625360D01*
X13170110Y-3500360D02*
X13170110Y-5625360D01*
X19450110Y-3500360D02*
X13170110Y-3500360D01*
X19450110Y-4400360D02*
X19450110Y-3500360D01*
X19240110Y-4400360D02*
X19450110Y-4400360D01*
X19240110Y-6310360D02*
X19240110Y-4400360D01*
X18750110Y-6310360D02*
X19240110Y-6310360D01*
D12*
X15131000Y-4280360D02*
X15321000Y-4470360D01*
X15321000Y-4280360D02*
X15131000Y-4470360D01*
X15131000Y-6030360D02*
X15321000Y-6220360D01*
X15321000Y-6030360D02*
X15131000Y-6220360D01*
X15131000Y-7780360D02*
X15321000Y-7970360D01*
X15321000Y-7780360D02*
X15131000Y-7970360D01*
X15131000Y-9530360D02*
X15321000Y-9720360D01*
X15321000Y-9530360D02*
X15131000Y-9720360D01*
X16231000Y-4280360D02*
X16421000Y-4470360D01*
X16421000Y-4280360D02*
X16231000Y-4470360D01*
X16231000Y-6030360D02*
X16421000Y-6220360D01*
X16421000Y-6030360D02*
X16231000Y-6220360D01*
X16231000Y-7780360D02*
X16421000Y-7970360D01*
X16421000Y-7780360D02*
X16231000Y-7970360D01*
X16231000Y-9530360D02*
X16421000Y-9720360D01*
X16421000Y-9530360D02*
X16231000Y-9720360D01*
X16981000Y-4280360D02*
X17171000Y-4470360D01*
X17171000Y-4280360D02*
X16981000Y-4470360D01*
X16981000Y-6030360D02*
X17171000Y-6220360D01*
X17171000Y-6030360D02*
X16981000Y-6220360D01*
X16981000Y-7780360D02*
X17171000Y-7970360D01*
X17171000Y-7780360D02*
X16981000Y-7970360D01*
X16981000Y-9530360D02*
X17171000Y-9720360D01*
X17171000Y-9530360D02*
X16981000Y-9720360D01*
X18081000Y-4280360D02*
X18271000Y-4470360D01*
X18271000Y-4280360D02*
X18081000Y-4470360D01*
X18081000Y-6030360D02*
X18271000Y-6220360D01*
X18271000Y-6030360D02*
X18081000Y-6220360D01*
X18081000Y-7780360D02*
X18271000Y-7970360D01*
X18271000Y-7780360D02*
X18081000Y-7970360D01*
X18081000Y-9530360D02*
X18271000Y-9720360D01*
X18271000Y-9530360D02*
X18081000Y-9720360D01*
X13780110Y-5175360D02*
G75*
G03X13780110Y-5175360I-160000J0D01*
G01*
X13788110Y-10150360D02*
G75*
G03X13788110Y-10150360I-160000J0D01*
G01*
X19160110Y-3950360D02*
G75*
G03X19160110Y-3950360I-160000J0D01*
G01*
X15776000Y-4205360D02*
X15776000Y-4545360D01*
X15606000Y-4375360D02*
X15946000Y-4375360D01*
X15776000Y-5955360D02*
X15776000Y-6295360D01*
X15606000Y-6125360D02*
X15946000Y-6125360D01*
X15776000Y-7705360D02*
X15776000Y-8045360D01*
X15606000Y-7875360D02*
X15946000Y-7875360D01*
X15776000Y-9455360D02*
X15776000Y-9795360D01*
X15606000Y-9625360D02*
X15946000Y-9625360D01*
X17626000Y-4205360D02*
X17626000Y-4545360D01*
X17456000Y-4375360D02*
X17796000Y-4375360D01*
X17626000Y-5955360D02*
X17626000Y-6295360D01*
X17456000Y-6125360D02*
X17796000Y-6125360D01*
X17626000Y-7705360D02*
X17626000Y-8045360D01*
X17456000Y-7875360D02*
X17796000Y-7875360D01*
X17626000Y-9455360D02*
X17626000Y-9795360D01*
X17456000Y-9625360D02*
X17796000Y-9625360D01*
D13*
X13436538Y-10971074D02*
X13436538Y-10671074D01*
X13507967Y-10671074D01*
X13550824Y-10685360D01*
X13579396Y-10713932D01*
X13593681Y-10742503D01*
X13607967Y-10799646D01*
X13607967Y-10842503D01*
X13593681Y-10899646D01*
X13579396Y-10928217D01*
X13550824Y-10956789D01*
X13507967Y-10971074D01*
X13436538Y-10971074D01*
X13736538Y-10971074D02*
X13736538Y-10771074D01*
X13736538Y-10828217D02*
X13750824Y-10799646D01*
X13765110Y-10785360D01*
X13793681Y-10771074D01*
X13822253Y-10771074D01*
X13922253Y-10971074D02*
X13922253Y-10771074D01*
X13922253Y-10671074D02*
X13907967Y-10685360D01*
X13922253Y-10699646D01*
X13936538Y-10685360D01*
X13922253Y-10671074D01*
X13922253Y-10699646D01*
X14107967Y-10971074D02*
X14079396Y-10956789D01*
X14065110Y-10928217D01*
X14065110Y-10671074D01*
X14265110Y-10971074D02*
X14236538Y-10956789D01*
X14222253Y-10928217D01*
X14222253Y-10671074D01*
X14607967Y-10971074D02*
X14607967Y-10671074D01*
X14707967Y-10885360D01*
X14807967Y-10671074D01*
X14807967Y-10971074D01*
X15079396Y-10971074D02*
X15079396Y-10813932D01*
X15065110Y-10785360D01*
X15036538Y-10771074D01*
X14979396Y-10771074D01*
X14950824Y-10785360D01*
X15079396Y-10956789D02*
X15050824Y-10971074D01*
X14979396Y-10971074D01*
X14950824Y-10956789D01*
X14936538Y-10928217D01*
X14936538Y-10899646D01*
X14950824Y-10871074D01*
X14979396Y-10856789D01*
X15050824Y-10856789D01*
X15079396Y-10842503D01*
X15222253Y-10771074D02*
X15222253Y-11071074D01*
X15222253Y-10785360D02*
X15250824Y-10771074D01*
X15307967Y-10771074D01*
X15336538Y-10785360D01*
X15350824Y-10799646D01*
X15365110Y-10828217D01*
X15365110Y-10913932D01*
X15350824Y-10942503D01*
X15336538Y-10956789D01*
X15307967Y-10971074D01*
X15250824Y-10971074D01*
X15222253Y-10956789D01*
X15493681Y-10942503D02*
X15507967Y-10956789D01*
X15493681Y-10971074D01*
X15479396Y-10956789D01*
X15493681Y-10942503D01*
X15493681Y-10971074D01*
X15493681Y-10785360D02*
X15507967Y-10799646D01*
X15493681Y-10813932D01*
X15479396Y-10799646D01*
X15493681Y-10785360D01*
X15493681Y-10813932D01*
X12975110Y-11370360D02*
X13165110Y-11560360D01*
X13165110Y-11370360D02*
X12975110Y-11560360D01*
X13593681Y-11601074D02*
X13422253Y-11601074D01*
X13507967Y-11601074D02*
X13507967Y-11301074D01*
X13479396Y-11343931D01*
X13450824Y-11372503D01*
X13422253Y-11386789D01*
X13722253Y-11572503D02*
X13736538Y-11586789D01*
X13722253Y-11601074D01*
X13707967Y-11586789D01*
X13722253Y-11572503D01*
X13722253Y-11601074D01*
X13879396Y-11601074D02*
X13936538Y-11601074D01*
X13965110Y-11586789D01*
X13979396Y-11572503D01*
X14007967Y-11529646D01*
X14022253Y-11472503D01*
X14022253Y-11358217D01*
X14007967Y-11329646D01*
X13993681Y-11315360D01*
X13965110Y-11301074D01*
X13907967Y-11301074D01*
X13879396Y-11315360D01*
X13865110Y-11329646D01*
X13850824Y-11358217D01*
X13850824Y-11429646D01*
X13865110Y-11458217D01*
X13879396Y-11472503D01*
X13907967Y-11486789D01*
X13965110Y-11486789D01*
X13993681Y-11472503D01*
X14007967Y-11458217D01*
X14022253Y-11429646D01*
X14207967Y-11301074D02*
X14236538Y-11301074D01*
X14265110Y-11315360D01*
X14279396Y-11329646D01*
X14293681Y-11358217D01*
X14307967Y-11415360D01*
X14307967Y-11486789D01*
X14293681Y-11543931D01*
X14279396Y-11572503D01*
X14265110Y-11586789D01*
X14236538Y-11601074D01*
X14207967Y-11601074D01*
X14179396Y-11586789D01*
X14165110Y-11572503D01*
X14150824Y-11543931D01*
X14136538Y-11486789D01*
X14136538Y-11415360D01*
X14150824Y-11358217D01*
X14165110Y-11329646D01*
X14179396Y-11315360D01*
X14207967Y-11301074D01*
X14436538Y-11601074D02*
X14436538Y-11401074D01*
X14436538Y-11429646D02*
X14450824Y-11415360D01*
X14479396Y-11401074D01*
X14522253Y-11401074D01*
X14550824Y-11415360D01*
X14565110Y-11443931D01*
X14565110Y-11601074D01*
X14565110Y-11443931D02*
X14579396Y-11415360D01*
X14607967Y-11401074D01*
X14650824Y-11401074D01*
X14679396Y-11415360D01*
X14693681Y-11443931D01*
X14693681Y-11601074D01*
X14836538Y-11601074D02*
X14836538Y-11401074D01*
X14836538Y-11429646D02*
X14850824Y-11415360D01*
X14879396Y-11401074D01*
X14922253Y-11401074D01*
X14950824Y-11415360D01*
X14965110Y-11443931D01*
X14965110Y-11601074D01*
X14965110Y-11443931D02*
X14979396Y-11415360D01*
X15007967Y-11401074D01*
X15050824Y-11401074D01*
X15079396Y-11415360D01*
X15093681Y-11443931D01*
X15093681Y-11601074D01*
X15679396Y-11286789D02*
X15422253Y-11672503D01*
X16065110Y-11301074D02*
X16093681Y-11301074D01*
X16122253Y-11315360D01*
X16136538Y-11329646D01*
X16150824Y-11358217D01*
X16165110Y-11415360D01*
X16165110Y-11486789D01*
X16150824Y-11543931D01*
X16136538Y-11572503D01*
X16122253Y-11586789D01*
X16093681Y-11601074D01*
X16065110Y-11601074D01*
X16036538Y-11586789D01*
X16022253Y-11572503D01*
X16007967Y-11543931D01*
X15993681Y-11486789D01*
X15993681Y-11415360D01*
X16007967Y-11358217D01*
X16022253Y-11329646D01*
X16036538Y-11315360D01*
X16065110Y-11301074D01*
X16293681Y-11572503D02*
X16307967Y-11586789D01*
X16293681Y-11601074D01*
X16279396Y-11586789D01*
X16293681Y-11572503D01*
X16293681Y-11601074D01*
X16493681Y-11301074D02*
X16522253Y-11301074D01*
X16550824Y-11315360D01*
X16565110Y-11329646D01*
X16579395Y-11358217D01*
X16593681Y-11415360D01*
X16593681Y-11486789D01*
X16579395Y-11543931D01*
X16565110Y-11572503D01*
X16550824Y-11586789D01*
X16522253Y-11601074D01*
X16493681Y-11601074D01*
X16465110Y-11586789D01*
X16450824Y-11572503D01*
X16436538Y-11543931D01*
X16422253Y-11486789D01*
X16422253Y-11415360D01*
X16436538Y-11358217D01*
X16450824Y-11329646D01*
X16465110Y-11315360D01*
X16493681Y-11301074D01*
X16693681Y-11301074D02*
X16893681Y-11301074D01*
X16765110Y-11601074D01*
X17150824Y-11301074D02*
X17007967Y-11301074D01*
X16993681Y-11443931D01*
X17007967Y-11429646D01*
X17036538Y-11415360D01*
X17107967Y-11415360D01*
X17136538Y-11429646D01*
X17150824Y-11443931D01*
X17165110Y-11472503D01*
X17165110Y-11543931D01*
X17150824Y-11572503D01*
X17136538Y-11586789D01*
X17107967Y-11601074D01*
X17036538Y-11601074D01*
X17007967Y-11586789D01*
X16993681Y-11572503D01*
X17279396Y-11301074D02*
X17279396Y-11358217D01*
X17393681Y-11301074D02*
X17393681Y-11358217D01*
X17836538Y-11715360D02*
X17822253Y-11701074D01*
X17793681Y-11658217D01*
X17779396Y-11629646D01*
X17765110Y-11586789D01*
X17750824Y-11515360D01*
X17750824Y-11458217D01*
X17765110Y-11386789D01*
X17779396Y-11343931D01*
X17793681Y-11315360D01*
X17822253Y-11272503D01*
X17836538Y-11258217D01*
X18107967Y-11601074D02*
X17936538Y-11601074D01*
X18022253Y-11601074D02*
X18022253Y-11301074D01*
X17993681Y-11343931D01*
X17965110Y-11372503D01*
X17936538Y-11386789D01*
X18365110Y-11301074D02*
X18307967Y-11301074D01*
X18279396Y-11315360D01*
X18265110Y-11329646D01*
X18236538Y-11372503D01*
X18222253Y-11429646D01*
X18222253Y-11543931D01*
X18236538Y-11572503D01*
X18250824Y-11586789D01*
X18279396Y-11601074D01*
X18336538Y-11601074D01*
X18365110Y-11586789D01*
X18379396Y-11572503D01*
X18393681Y-11543931D01*
X18393681Y-11472503D01*
X18379396Y-11443931D01*
X18365110Y-11429646D01*
X18336538Y-11415360D01*
X18279396Y-11415360D01*
X18250824Y-11429646D01*
X18236538Y-11443931D01*
X18222253Y-11472503D01*
X18750824Y-11601074D02*
X18750824Y-11301074D01*
X18879396Y-11601074D02*
X18879396Y-11443931D01*
X18865110Y-11415360D01*
X18836538Y-11401074D01*
X18793681Y-11401074D01*
X18765110Y-11415360D01*
X18750824Y-11429646D01*
X19065110Y-11601074D02*
X19036538Y-11586789D01*
X19022253Y-11572503D01*
X19007967Y-11543931D01*
X19007967Y-11458217D01*
X19022253Y-11429646D01*
X19036538Y-11415360D01*
X19065110Y-11401074D01*
X19107967Y-11401074D01*
X19136538Y-11415360D01*
X19150824Y-11429646D01*
X19165110Y-11458217D01*
X19165110Y-11543931D01*
X19150824Y-11572503D01*
X19136538Y-11586789D01*
X19107967Y-11601074D01*
X19065110Y-11601074D01*
X19336538Y-11601074D02*
X19307967Y-11586789D01*
X19293681Y-11558217D01*
X19293681Y-11301074D01*
X19565110Y-11586789D02*
X19536539Y-11601074D01*
X19479396Y-11601074D01*
X19450824Y-11586789D01*
X19436539Y-11558217D01*
X19436539Y-11443931D01*
X19450824Y-11415360D01*
X19479396Y-11401074D01*
X19536539Y-11401074D01*
X19565110Y-11415360D01*
X19579396Y-11443931D01*
X19579396Y-11472503D01*
X19436539Y-11501074D01*
X19693681Y-11586789D02*
X19722253Y-11601074D01*
X19779396Y-11601074D01*
X19807967Y-11586789D01*
X19822253Y-11558217D01*
X19822253Y-11543931D01*
X19807967Y-11515360D01*
X19779396Y-11501074D01*
X19736539Y-11501074D01*
X19707967Y-11486789D01*
X19693681Y-11458217D01*
X19693681Y-11443931D01*
X19707967Y-11415360D01*
X19736539Y-11401074D01*
X19779396Y-11401074D01*
X19807967Y-11415360D01*
X19922253Y-11715360D02*
X19936539Y-11701074D01*
X19965110Y-11658217D01*
X19979396Y-11629646D01*
X19993681Y-11586789D01*
X20007967Y-11515360D01*
X20007967Y-11458217D01*
X19993681Y-11386789D01*
X19979396Y-11343931D01*
X19965110Y-11315360D01*
X19936539Y-11272503D01*
X19922253Y-11258217D01*
X20465110Y-11715360D02*
X20450824Y-11701074D01*
X20422253Y-11658217D01*
X20407967Y-11629646D01*
X20393681Y-11586789D01*
X20379396Y-11515360D01*
X20379396Y-11458217D01*
X20393681Y-11386789D01*
X20407967Y-11343931D01*
X20422253Y-11315360D01*
X20450824Y-11272503D01*
X20465110Y-11258217D01*
X20579396Y-11401074D02*
X20579396Y-11601074D01*
X20579396Y-11429646D02*
X20593681Y-11415360D01*
X20622253Y-11401074D01*
X20665110Y-11401074D01*
X20693681Y-11415360D01*
X20707967Y-11443931D01*
X20707967Y-11601074D01*
X20893681Y-11601074D02*
X20865110Y-11586789D01*
X20850824Y-11572503D01*
X20836539Y-11543931D01*
X20836539Y-11458217D01*
X20850824Y-11429646D01*
X20865110Y-11415360D01*
X20893681Y-11401074D01*
X20936539Y-11401074D01*
X20965110Y-11415360D01*
X20979396Y-11429646D01*
X20993681Y-11458217D01*
X20993681Y-11543931D01*
X20979396Y-11572503D01*
X20965110Y-11586789D01*
X20936539Y-11601074D01*
X20893681Y-11601074D01*
X21079396Y-11401074D02*
X21193681Y-11401074D01*
X21122253Y-11301074D02*
X21122253Y-11558217D01*
X21136539Y-11586789D01*
X21165110Y-11601074D01*
X21193681Y-11601074D01*
X21522253Y-11401074D02*
X21522253Y-11701074D01*
X21522253Y-11415360D02*
X21550824Y-11401074D01*
X21607967Y-11401074D01*
X21636539Y-11415360D01*
X21650824Y-11429646D01*
X21665110Y-11458217D01*
X21665110Y-11543931D01*
X21650824Y-11572503D01*
X21636539Y-11586789D01*
X21607967Y-11601074D01*
X21550824Y-11601074D01*
X21522253Y-11586789D01*
X21836539Y-11601074D02*
X21807967Y-11586789D01*
X21793681Y-11558217D01*
X21793681Y-11301074D01*
X22079396Y-11601074D02*
X22079396Y-11443931D01*
X22065110Y-11415360D01*
X22036539Y-11401074D01*
X21979396Y-11401074D01*
X21950824Y-11415360D01*
X22079396Y-11586789D02*
X22050824Y-11601074D01*
X21979396Y-11601074D01*
X21950824Y-11586789D01*
X21936539Y-11558217D01*
X21936539Y-11529646D01*
X21950824Y-11501074D01*
X21979396Y-11486789D01*
X22050824Y-11486789D01*
X22079396Y-11472503D01*
X22179396Y-11401074D02*
X22293681Y-11401074D01*
X22222253Y-11301074D02*
X22222253Y-11558217D01*
X22236539Y-11586789D01*
X22265110Y-11601074D01*
X22293681Y-11601074D01*
X22507967Y-11586789D02*
X22479396Y-11601074D01*
X22422253Y-11601074D01*
X22393681Y-11586789D01*
X22379396Y-11558217D01*
X22379396Y-11443931D01*
X22393681Y-11415360D01*
X22422253Y-11401074D01*
X22479396Y-11401074D01*
X22507967Y-11415360D01*
X22522253Y-11443931D01*
X22522253Y-11472503D01*
X22379396Y-11501074D01*
X22779396Y-11601074D02*
X22779396Y-11301074D01*
X22779396Y-11586789D02*
X22750824Y-11601074D01*
X22693681Y-11601074D01*
X22665110Y-11586789D01*
X22650824Y-11572503D01*
X22636539Y-11543931D01*
X22636539Y-11458217D01*
X22650824Y-11429646D01*
X22665110Y-11415360D01*
X22693681Y-11401074D01*
X22750824Y-11401074D01*
X22779396Y-11415360D01*
X22893681Y-11715360D02*
X22907967Y-11701074D01*
X22936539Y-11658217D01*
X22950824Y-11629646D01*
X22965110Y-11586789D01*
X22979396Y-11515360D01*
X22979396Y-11458217D01*
X22965110Y-11386789D01*
X22950824Y-11343931D01*
X22936539Y-11315360D01*
X22907967Y-11272503D01*
X22893681Y-11258217D01*
X13165110Y-11861360D02*
G75*
G03X13165110Y-11861360I-160000J0D01*
G01*
X13407967Y-11697074D02*
X13593681Y-11697074D01*
X13493681Y-11811360D01*
X13536538Y-11811360D01*
X13565110Y-11825646D01*
X13579396Y-11839931D01*
X13593681Y-11868503D01*
X13593681Y-11939931D01*
X13579396Y-11968503D01*
X13565110Y-11982789D01*
X13536538Y-11997074D01*
X13450824Y-11997074D01*
X13422253Y-11982789D01*
X13407967Y-11968503D01*
X13722253Y-11968503D02*
X13736538Y-11982789D01*
X13722253Y-11997074D01*
X13707967Y-11982789D01*
X13722253Y-11968503D01*
X13722253Y-11997074D01*
X13850824Y-11725646D02*
X13865110Y-11711360D01*
X13893681Y-11697074D01*
X13965110Y-11697074D01*
X13993681Y-11711360D01*
X14007967Y-11725646D01*
X14022253Y-11754217D01*
X14022253Y-11782789D01*
X14007967Y-11825646D01*
X13836538Y-11997074D01*
X14022253Y-11997074D01*
X14207967Y-11697074D02*
X14236538Y-11697074D01*
X14265110Y-11711360D01*
X14279396Y-11725646D01*
X14293681Y-11754217D01*
X14307967Y-11811360D01*
X14307967Y-11882789D01*
X14293681Y-11939931D01*
X14279396Y-11968503D01*
X14265110Y-11982789D01*
X14236538Y-11997074D01*
X14207967Y-11997074D01*
X14179396Y-11982789D01*
X14165110Y-11968503D01*
X14150824Y-11939931D01*
X14136538Y-11882789D01*
X14136538Y-11811360D01*
X14150824Y-11754217D01*
X14165110Y-11725646D01*
X14179396Y-11711360D01*
X14207967Y-11697074D01*
X14436538Y-11997074D02*
X14436538Y-11797074D01*
X14436538Y-11825646D02*
X14450824Y-11811360D01*
X14479396Y-11797074D01*
X14522253Y-11797074D01*
X14550824Y-11811360D01*
X14565110Y-11839931D01*
X14565110Y-11997074D01*
X14565110Y-11839931D02*
X14579396Y-11811360D01*
X14607967Y-11797074D01*
X14650824Y-11797074D01*
X14679396Y-11811360D01*
X14693681Y-11839931D01*
X14693681Y-11997074D01*
X14836538Y-11997074D02*
X14836538Y-11797074D01*
X14836538Y-11825646D02*
X14850824Y-11811360D01*
X14879396Y-11797074D01*
X14922253Y-11797074D01*
X14950824Y-11811360D01*
X14965110Y-11839931D01*
X14965110Y-11997074D01*
X14965110Y-11839931D02*
X14979396Y-11811360D01*
X15007967Y-11797074D01*
X15050824Y-11797074D01*
X15079396Y-11811360D01*
X15093681Y-11839931D01*
X15093681Y-11997074D01*
X15679396Y-11682789D02*
X15422253Y-12068503D01*
X16065110Y-11697074D02*
X16093681Y-11697074D01*
X16122253Y-11711360D01*
X16136538Y-11725646D01*
X16150824Y-11754217D01*
X16165110Y-11811360D01*
X16165110Y-11882789D01*
X16150824Y-11939931D01*
X16136538Y-11968503D01*
X16122253Y-11982789D01*
X16093681Y-11997074D01*
X16065110Y-11997074D01*
X16036538Y-11982789D01*
X16022253Y-11968503D01*
X16007967Y-11939931D01*
X15993681Y-11882789D01*
X15993681Y-11811360D01*
X16007967Y-11754217D01*
X16022253Y-11725646D01*
X16036538Y-11711360D01*
X16065110Y-11697074D01*
X16293681Y-11968503D02*
X16307967Y-11982789D01*
X16293681Y-11997074D01*
X16279396Y-11982789D01*
X16293681Y-11968503D01*
X16293681Y-11997074D01*
X16593681Y-11997074D02*
X16422253Y-11997074D01*
X16507967Y-11997074D02*
X16507967Y-11697074D01*
X16479395Y-11739931D01*
X16450824Y-11768503D01*
X16422253Y-11782789D01*
X16707967Y-11725646D02*
X16722253Y-11711360D01*
X16750824Y-11697074D01*
X16822253Y-11697074D01*
X16850824Y-11711360D01*
X16865110Y-11725646D01*
X16879396Y-11754217D01*
X16879396Y-11782789D01*
X16865110Y-11825646D01*
X16693681Y-11997074D01*
X16879396Y-11997074D01*
X17136538Y-11697074D02*
X17079396Y-11697074D01*
X17050824Y-11711360D01*
X17036538Y-11725646D01*
X17007967Y-11768503D01*
X16993681Y-11825646D01*
X16993681Y-11939931D01*
X17007967Y-11968503D01*
X17022253Y-11982789D01*
X17050824Y-11997074D01*
X17107967Y-11997074D01*
X17136538Y-11982789D01*
X17150824Y-11968503D01*
X17165110Y-11939931D01*
X17165110Y-11868503D01*
X17150824Y-11839931D01*
X17136538Y-11825646D01*
X17107967Y-11811360D01*
X17050824Y-11811360D01*
X17022253Y-11825646D01*
X17007967Y-11839931D01*
X16993681Y-11868503D01*
X17279396Y-11697074D02*
X17279396Y-11754217D01*
X17393681Y-11697074D02*
X17393681Y-11754217D01*
X17836538Y-12111360D02*
X17822253Y-12097074D01*
X17793681Y-12054217D01*
X17779396Y-12025646D01*
X17765110Y-11982789D01*
X17750824Y-11911360D01*
X17750824Y-11854217D01*
X17765110Y-11782789D01*
X17779396Y-11739931D01*
X17793681Y-11711360D01*
X17822253Y-11668503D01*
X17836538Y-11654217D01*
X17922253Y-11697074D02*
X18107967Y-11697074D01*
X18007967Y-11811360D01*
X18050824Y-11811360D01*
X18079396Y-11825646D01*
X18093681Y-11839931D01*
X18107967Y-11868503D01*
X18107967Y-11939931D01*
X18093681Y-11968503D01*
X18079396Y-11982789D01*
X18050824Y-11997074D01*
X17965110Y-11997074D01*
X17936538Y-11982789D01*
X17922253Y-11968503D01*
X18465110Y-11997074D02*
X18465110Y-11697074D01*
X18593681Y-11997074D02*
X18593681Y-11839931D01*
X18579396Y-11811360D01*
X18550824Y-11797074D01*
X18507967Y-11797074D01*
X18479396Y-11811360D01*
X18465110Y-11825646D01*
X18779396Y-11997074D02*
X18750824Y-11982789D01*
X18736538Y-11968503D01*
X18722253Y-11939931D01*
X18722253Y-11854217D01*
X18736538Y-11825646D01*
X18750824Y-11811360D01*
X18779396Y-11797074D01*
X18822253Y-11797074D01*
X18850824Y-11811360D01*
X18865110Y-11825646D01*
X18879396Y-11854217D01*
X18879396Y-11939931D01*
X18865110Y-11968503D01*
X18850824Y-11982789D01*
X18822253Y-11997074D01*
X18779396Y-11997074D01*
X19050824Y-11997074D02*
X19022253Y-11982789D01*
X19007967Y-11954217D01*
X19007967Y-11697074D01*
X19279396Y-11982789D02*
X19250824Y-11997074D01*
X19193681Y-11997074D01*
X19165110Y-11982789D01*
X19150824Y-11954217D01*
X19150824Y-11839931D01*
X19165110Y-11811360D01*
X19193681Y-11797074D01*
X19250824Y-11797074D01*
X19279396Y-11811360D01*
X19293681Y-11839931D01*
X19293681Y-11868503D01*
X19150824Y-11897074D01*
X19407967Y-11982789D02*
X19436539Y-11997074D01*
X19493681Y-11997074D01*
X19522253Y-11982789D01*
X19536539Y-11954217D01*
X19536539Y-11939931D01*
X19522253Y-11911360D01*
X19493681Y-11897074D01*
X19450824Y-11897074D01*
X19422253Y-11882789D01*
X19407967Y-11854217D01*
X19407967Y-11839931D01*
X19422253Y-11811360D01*
X19450824Y-11797074D01*
X19493681Y-11797074D01*
X19522253Y-11811360D01*
X19636538Y-12111360D02*
X19650824Y-12097074D01*
X19679396Y-12054217D01*
X19693681Y-12025646D01*
X19707967Y-11982789D01*
X19722253Y-11911360D01*
X19722253Y-11854217D01*
X19707967Y-11782789D01*
X19693681Y-11739931D01*
X19679396Y-11711360D01*
X19650824Y-11668503D01*
X19636538Y-11654217D01*
X20179396Y-12111360D02*
X20165110Y-12097074D01*
X20136538Y-12054217D01*
X20122253Y-12025646D01*
X20107967Y-11982789D01*
X20093681Y-11911360D01*
X20093681Y-11854217D01*
X20107967Y-11782789D01*
X20122253Y-11739931D01*
X20136538Y-11711360D01*
X20165110Y-11668503D01*
X20179396Y-11654217D01*
X20293681Y-11797074D02*
X20293681Y-11997074D01*
X20293681Y-11825646D02*
X20307967Y-11811360D01*
X20336538Y-11797074D01*
X20379396Y-11797074D01*
X20407967Y-11811360D01*
X20422253Y-11839931D01*
X20422253Y-11997074D01*
X20607967Y-11997074D02*
X20579396Y-11982789D01*
X20565110Y-11968503D01*
X20550824Y-11939931D01*
X20550824Y-11854217D01*
X20565110Y-11825646D01*
X20579396Y-11811360D01*
X20607967Y-11797074D01*
X20650824Y-11797074D01*
X20679396Y-11811360D01*
X20693681Y-11825646D01*
X20707967Y-11854217D01*
X20707967Y-11939931D01*
X20693681Y-11968503D01*
X20679396Y-11982789D01*
X20650824Y-11997074D01*
X20607967Y-11997074D01*
X20793681Y-11797074D02*
X20907967Y-11797074D01*
X20836539Y-11697074D02*
X20836539Y-11954217D01*
X20850824Y-11982789D01*
X20879396Y-11997074D01*
X20907967Y-11997074D01*
X21236539Y-11797074D02*
X21236539Y-12097074D01*
X21236539Y-11811360D02*
X21265110Y-11797074D01*
X21322253Y-11797074D01*
X21350824Y-11811360D01*
X21365110Y-11825646D01*
X21379396Y-11854217D01*
X21379396Y-11939931D01*
X21365110Y-11968503D01*
X21350824Y-11982789D01*
X21322253Y-11997074D01*
X21265110Y-11997074D01*
X21236539Y-11982789D01*
X21550824Y-11997074D02*
X21522253Y-11982789D01*
X21507967Y-11954217D01*
X21507967Y-11697074D01*
X21793681Y-11997074D02*
X21793681Y-11839931D01*
X21779396Y-11811360D01*
X21750824Y-11797074D01*
X21693681Y-11797074D01*
X21665110Y-11811360D01*
X21793681Y-11982789D02*
X21765110Y-11997074D01*
X21693681Y-11997074D01*
X21665110Y-11982789D01*
X21650824Y-11954217D01*
X21650824Y-11925646D01*
X21665110Y-11897074D01*
X21693681Y-11882789D01*
X21765110Y-11882789D01*
X21793681Y-11868503D01*
X21893681Y-11797074D02*
X22007967Y-11797074D01*
X21936539Y-11697074D02*
X21936539Y-11954217D01*
X21950824Y-11982789D01*
X21979396Y-11997074D01*
X22007967Y-11997074D01*
X22222253Y-11982789D02*
X22193682Y-11997074D01*
X22136539Y-11997074D01*
X22107967Y-11982789D01*
X22093682Y-11954217D01*
X22093682Y-11839931D01*
X22107967Y-11811360D01*
X22136539Y-11797074D01*
X22193682Y-11797074D01*
X22222253Y-11811360D01*
X22236539Y-11839931D01*
X22236539Y-11868503D01*
X22093682Y-11897074D01*
X22493681Y-11997074D02*
X22493681Y-11697074D01*
X22493681Y-11982789D02*
X22465110Y-11997074D01*
X22407967Y-11997074D01*
X22379396Y-11982789D01*
X22365110Y-11968503D01*
X22350824Y-11939931D01*
X22350824Y-11854217D01*
X22365110Y-11825646D01*
X22379396Y-11811360D01*
X22407967Y-11797074D01*
X22465110Y-11797074D01*
X22493681Y-11811360D01*
X22607967Y-12111360D02*
X22622253Y-12097074D01*
X22650824Y-12054217D01*
X22665110Y-12025646D01*
X22679396Y-11982789D01*
X22693681Y-11911360D01*
X22693681Y-11854217D01*
X22679396Y-11782789D01*
X22665110Y-11739931D01*
X22650824Y-11711360D01*
X22622253Y-11668503D01*
X22607967Y-11654217D01*
X12995110Y-12141360D02*
X12995110Y-12481360D01*
X12825110Y-12311360D02*
X13165110Y-12311360D01*
X13407967Y-12147074D02*
X13593681Y-12147074D01*
X13493681Y-12261360D01*
X13536538Y-12261360D01*
X13565110Y-12275646D01*
X13579396Y-12289931D01*
X13593681Y-12318503D01*
X13593681Y-12389931D01*
X13579396Y-12418503D01*
X13565110Y-12432789D01*
X13536538Y-12447074D01*
X13450824Y-12447074D01*
X13422253Y-12432789D01*
X13407967Y-12418503D01*
X13722253Y-12418503D02*
X13736538Y-12432789D01*
X13722253Y-12447074D01*
X13707967Y-12432789D01*
X13722253Y-12418503D01*
X13722253Y-12447074D01*
X13993681Y-12247074D02*
X13993681Y-12447074D01*
X13922253Y-12132789D02*
X13850824Y-12347074D01*
X14036538Y-12347074D01*
X14207967Y-12147074D02*
X14236538Y-12147074D01*
X14265110Y-12161360D01*
X14279396Y-12175646D01*
X14293681Y-12204217D01*
X14307967Y-12261360D01*
X14307967Y-12332789D01*
X14293681Y-12389931D01*
X14279396Y-12418503D01*
X14265110Y-12432789D01*
X14236538Y-12447074D01*
X14207967Y-12447074D01*
X14179396Y-12432789D01*
X14165110Y-12418503D01*
X14150824Y-12389931D01*
X14136538Y-12332789D01*
X14136538Y-12261360D01*
X14150824Y-12204217D01*
X14165110Y-12175646D01*
X14179396Y-12161360D01*
X14207967Y-12147074D01*
X14436538Y-12447074D02*
X14436538Y-12247074D01*
X14436538Y-12275646D02*
X14450824Y-12261360D01*
X14479396Y-12247074D01*
X14522253Y-12247074D01*
X14550824Y-12261360D01*
X14565110Y-12289931D01*
X14565110Y-12447074D01*
X14565110Y-12289931D02*
X14579396Y-12261360D01*
X14607967Y-12247074D01*
X14650824Y-12247074D01*
X14679396Y-12261360D01*
X14693681Y-12289931D01*
X14693681Y-12447074D01*
X14836538Y-12447074D02*
X14836538Y-12247074D01*
X14836538Y-12275646D02*
X14850824Y-12261360D01*
X14879396Y-12247074D01*
X14922253Y-12247074D01*
X14950824Y-12261360D01*
X14965110Y-12289931D01*
X14965110Y-12447074D01*
X14965110Y-12289931D02*
X14979396Y-12261360D01*
X15007967Y-12247074D01*
X15050824Y-12247074D01*
X15079396Y-12261360D01*
X15093681Y-12289931D01*
X15093681Y-12447074D01*
X15679396Y-12132789D02*
X15422253Y-12518503D01*
X16065110Y-12147074D02*
X16093681Y-12147074D01*
X16122253Y-12161360D01*
X16136538Y-12175646D01*
X16150824Y-12204217D01*
X16165110Y-12261360D01*
X16165110Y-12332789D01*
X16150824Y-12389931D01*
X16136538Y-12418503D01*
X16122253Y-12432789D01*
X16093681Y-12447074D01*
X16065110Y-12447074D01*
X16036538Y-12432789D01*
X16022253Y-12418503D01*
X16007967Y-12389931D01*
X15993681Y-12332789D01*
X15993681Y-12261360D01*
X16007967Y-12204217D01*
X16022253Y-12175646D01*
X16036538Y-12161360D01*
X16065110Y-12147074D01*
X16293681Y-12418503D02*
X16307967Y-12432789D01*
X16293681Y-12447074D01*
X16279396Y-12432789D01*
X16293681Y-12418503D01*
X16293681Y-12447074D01*
X16593681Y-12447074D02*
X16422253Y-12447074D01*
X16507967Y-12447074D02*
X16507967Y-12147074D01*
X16479395Y-12189931D01*
X16450824Y-12218503D01*
X16422253Y-12232789D01*
X16693681Y-12147074D02*
X16879396Y-12147074D01*
X16779396Y-12261360D01*
X16822253Y-12261360D01*
X16850824Y-12275646D01*
X16865110Y-12289931D01*
X16879396Y-12318503D01*
X16879396Y-12389931D01*
X16865110Y-12418503D01*
X16850824Y-12432789D01*
X16822253Y-12447074D01*
X16736538Y-12447074D01*
X16707967Y-12432789D01*
X16693681Y-12418503D01*
X17136538Y-12247074D02*
X17136538Y-12447074D01*
X17065110Y-12132789D02*
X16993681Y-12347074D01*
X17179396Y-12347074D01*
X17279396Y-12147074D02*
X17279396Y-12204217D01*
X17393681Y-12147074D02*
X17393681Y-12204217D01*
X17836538Y-12561360D02*
X17822253Y-12547074D01*
X17793681Y-12504217D01*
X17779396Y-12475646D01*
X17765110Y-12432789D01*
X17750824Y-12361360D01*
X17750824Y-12304217D01*
X17765110Y-12232789D01*
X17779396Y-12189931D01*
X17793681Y-12161360D01*
X17822253Y-12118503D01*
X17836538Y-12104217D01*
X17993681Y-12275646D02*
X17965110Y-12261360D01*
X17950824Y-12247074D01*
X17936538Y-12218503D01*
X17936538Y-12204217D01*
X17950824Y-12175646D01*
X17965110Y-12161360D01*
X17993681Y-12147074D01*
X18050824Y-12147074D01*
X18079396Y-12161360D01*
X18093681Y-12175646D01*
X18107967Y-12204217D01*
X18107967Y-12218503D01*
X18093681Y-12247074D01*
X18079396Y-12261360D01*
X18050824Y-12275646D01*
X17993681Y-12275646D01*
X17965110Y-12289931D01*
X17950824Y-12304217D01*
X17936538Y-12332789D01*
X17936538Y-12389931D01*
X17950824Y-12418503D01*
X17965110Y-12432789D01*
X17993681Y-12447074D01*
X18050824Y-12447074D01*
X18079396Y-12432789D01*
X18093681Y-12418503D01*
X18107967Y-12389931D01*
X18107967Y-12332789D01*
X18093681Y-12304217D01*
X18079396Y-12289931D01*
X18050824Y-12275646D01*
X18465110Y-12447074D02*
X18465110Y-12147074D01*
X18593681Y-12447074D02*
X18593681Y-12289931D01*
X18579396Y-12261360D01*
X18550824Y-12247074D01*
X18507967Y-12247074D01*
X18479396Y-12261360D01*
X18465110Y-12275646D01*
X18779396Y-12447074D02*
X18750824Y-12432789D01*
X18736538Y-12418503D01*
X18722253Y-12389931D01*
X18722253Y-12304217D01*
X18736538Y-12275646D01*
X18750824Y-12261360D01*
X18779396Y-12247074D01*
X18822253Y-12247074D01*
X18850824Y-12261360D01*
X18865110Y-12275646D01*
X18879396Y-12304217D01*
X18879396Y-12389931D01*
X18865110Y-12418503D01*
X18850824Y-12432789D01*
X18822253Y-12447074D01*
X18779396Y-12447074D01*
X19050824Y-12447074D02*
X19022253Y-12432789D01*
X19007967Y-12404217D01*
X19007967Y-12147074D01*
X19279396Y-12432789D02*
X19250824Y-12447074D01*
X19193681Y-12447074D01*
X19165110Y-12432789D01*
X19150824Y-12404217D01*
X19150824Y-12289931D01*
X19165110Y-12261360D01*
X19193681Y-12247074D01*
X19250824Y-12247074D01*
X19279396Y-12261360D01*
X19293681Y-12289931D01*
X19293681Y-12318503D01*
X19150824Y-12347074D01*
X19407967Y-12432789D02*
X19436539Y-12447074D01*
X19493681Y-12447074D01*
X19522253Y-12432789D01*
X19536539Y-12404217D01*
X19536539Y-12389931D01*
X19522253Y-12361360D01*
X19493681Y-12347074D01*
X19450824Y-12347074D01*
X19422253Y-12332789D01*
X19407967Y-12304217D01*
X19407967Y-12289931D01*
X19422253Y-12261360D01*
X19450824Y-12247074D01*
X19493681Y-12247074D01*
X19522253Y-12261360D01*
X19636538Y-12561360D02*
X19650824Y-12547074D01*
X19679396Y-12504217D01*
X19693681Y-12475646D01*
X19707967Y-12432789D01*
X19722253Y-12361360D01*
X19722253Y-12304217D01*
X19707967Y-12232789D01*
X19693681Y-12189931D01*
X19679396Y-12161360D01*
X19650824Y-12118503D01*
X19636538Y-12104217D01*
X20179396Y-12561360D02*
X20165110Y-12547074D01*
X20136538Y-12504217D01*
X20122253Y-12475646D01*
X20107967Y-12432789D01*
X20093681Y-12361360D01*
X20093681Y-12304217D01*
X20107967Y-12232789D01*
X20122253Y-12189931D01*
X20136538Y-12161360D01*
X20165110Y-12118503D01*
X20179396Y-12104217D01*
X20293681Y-12247074D02*
X20293681Y-12447074D01*
X20293681Y-12275646D02*
X20307967Y-12261360D01*
X20336538Y-12247074D01*
X20379396Y-12247074D01*
X20407967Y-12261360D01*
X20422253Y-12289931D01*
X20422253Y-12447074D01*
X20607967Y-12447074D02*
X20579396Y-12432789D01*
X20565110Y-12418503D01*
X20550824Y-12389931D01*
X20550824Y-12304217D01*
X20565110Y-12275646D01*
X20579396Y-12261360D01*
X20607967Y-12247074D01*
X20650824Y-12247074D01*
X20679396Y-12261360D01*
X20693681Y-12275646D01*
X20707967Y-12304217D01*
X20707967Y-12389931D01*
X20693681Y-12418503D01*
X20679396Y-12432789D01*
X20650824Y-12447074D01*
X20607967Y-12447074D01*
X20793681Y-12247074D02*
X20907967Y-12247074D01*
X20836539Y-12147074D02*
X20836539Y-12404217D01*
X20850824Y-12432789D01*
X20879396Y-12447074D01*
X20907967Y-12447074D01*
X21236539Y-12247074D02*
X21236539Y-12547074D01*
X21236539Y-12261360D02*
X21265110Y-12247074D01*
X21322253Y-12247074D01*
X21350824Y-12261360D01*
X21365110Y-12275646D01*
X21379396Y-12304217D01*
X21379396Y-12389931D01*
X21365110Y-12418503D01*
X21350824Y-12432789D01*
X21322253Y-12447074D01*
X21265110Y-12447074D01*
X21236539Y-12432789D01*
X21550824Y-12447074D02*
X21522253Y-12432789D01*
X21507967Y-12404217D01*
X21507967Y-12147074D01*
X21793681Y-12447074D02*
X21793681Y-12289931D01*
X21779396Y-12261360D01*
X21750824Y-12247074D01*
X21693681Y-12247074D01*
X21665110Y-12261360D01*
X21793681Y-12432789D02*
X21765110Y-12447074D01*
X21693681Y-12447074D01*
X21665110Y-12432789D01*
X21650824Y-12404217D01*
X21650824Y-12375646D01*
X21665110Y-12347074D01*
X21693681Y-12332789D01*
X21765110Y-12332789D01*
X21793681Y-12318503D01*
X21893681Y-12247074D02*
X22007967Y-12247074D01*
X21936539Y-12147074D02*
X21936539Y-12404217D01*
X21950824Y-12432789D01*
X21979396Y-12447074D01*
X22007967Y-12447074D01*
X22222253Y-12432789D02*
X22193682Y-12447074D01*
X22136539Y-12447074D01*
X22107967Y-12432789D01*
X22093682Y-12404217D01*
X22093682Y-12289931D01*
X22107967Y-12261360D01*
X22136539Y-12247074D01*
X22193682Y-12247074D01*
X22222253Y-12261360D01*
X22236539Y-12289931D01*
X22236539Y-12318503D01*
X22093682Y-12347074D01*
X22493681Y-12447074D02*
X22493681Y-12147074D01*
X22493681Y-12432789D02*
X22465110Y-12447074D01*
X22407967Y-12447074D01*
X22379396Y-12432789D01*
X22365110Y-12418503D01*
X22350824Y-12389931D01*
X22350824Y-12304217D01*
X22365110Y-12275646D01*
X22379396Y-12261360D01*
X22407967Y-12247074D01*
X22465110Y-12247074D01*
X22493681Y-12261360D01*
X22607967Y-12561360D02*
X22622253Y-12547074D01*
X22650824Y-12504217D01*
X22665110Y-12475646D01*
X22679396Y-12432789D01*
X22693681Y-12361360D01*
X22693681Y-12304217D01*
X22679396Y-12232789D01*
X22665110Y-12189931D01*
X22650824Y-12161360D01*
X22622253Y-12118503D01*
X22607967Y-12104217D01*
M02*
