G04 #@! TF.GenerationSoftware,KiCad,Pcbnew,5.0.2+dfsg1-1*
G04 #@! TF.CreationDate,2019-08-24T10:47:54+02:00*
G04 #@! TF.ProjectId,oskar-pcb_v01,6f736b61-722d-4706-9362-5f7630312e6b,rev?*
G04 #@! TF.SameCoordinates,Original*
G04 #@! TF.FileFunction,Legend,Top*
G04 #@! TF.FilePolarity,Positive*
%FSLAX46Y46*%
G04 Gerber Fmt 4.6, Leading zero omitted, Abs format (unit mm)*
G04 Created by KiCad (PCBNEW 5.0.2+dfsg1-1) date Sat 24 Aug 2019 10:47:54 CEST*
%MOMM*%
%LPD*%
G01*
G04 APERTURE LIST*
%ADD10C,0.300000*%
%ADD11C,0.150000*%
G04 APERTURE END LIST*
D10*
X185134285Y-48968571D02*
X185991428Y-48968571D01*
X185562857Y-50468571D02*
X185562857Y-48968571D01*
X186705714Y-50468571D02*
X186562857Y-50397142D01*
X186491428Y-50325714D01*
X186420000Y-50182857D01*
X186420000Y-49754285D01*
X186491428Y-49611428D01*
X186562857Y-49540000D01*
X186705714Y-49468571D01*
X186920000Y-49468571D01*
X187062857Y-49540000D01*
X187134285Y-49611428D01*
X187205714Y-49754285D01*
X187205714Y-50182857D01*
X187134285Y-50325714D01*
X187062857Y-50397142D01*
X186920000Y-50468571D01*
X186705714Y-50468571D01*
X187848571Y-49468571D02*
X187848571Y-50968571D01*
X187848571Y-49540000D02*
X187991428Y-49468571D01*
X188277142Y-49468571D01*
X188420000Y-49540000D01*
X188491428Y-49611428D01*
X188562857Y-49754285D01*
X188562857Y-50182857D01*
X188491428Y-50325714D01*
X188420000Y-50397142D01*
X188277142Y-50468571D01*
X187991428Y-50468571D01*
X187848571Y-50397142D01*
D11*
G04 #@! TO.C,R1*
X146950000Y-57940000D02*
X146950000Y-63020000D01*
X146950000Y-63020000D02*
X144410000Y-63020000D01*
X144410000Y-63020000D02*
X144410000Y-57940000D01*
X144410000Y-57940000D02*
X146950000Y-57940000D01*
X145680000Y-57940000D02*
X145680000Y-56670000D01*
X145680000Y-63020000D02*
X145680000Y-64290000D01*
X145583333Y-60812380D02*
X145250000Y-60336190D01*
X145011904Y-60812380D02*
X145011904Y-59812380D01*
X145392857Y-59812380D01*
X145488095Y-59860000D01*
X145535714Y-59907619D01*
X145583333Y-60002857D01*
X145583333Y-60145714D01*
X145535714Y-60240952D01*
X145488095Y-60288571D01*
X145392857Y-60336190D01*
X145011904Y-60336190D01*
X146535714Y-60812380D02*
X145964285Y-60812380D01*
X146250000Y-60812380D02*
X146250000Y-59812380D01*
X146154761Y-59955238D01*
X146059523Y-60050476D01*
X145964285Y-60098095D01*
G04 #@! TO.C,H1*
X139418095Y-54962380D02*
X139418095Y-53962380D01*
X139418095Y-54438571D02*
X139989523Y-54438571D01*
X139989523Y-54962380D02*
X139989523Y-53962380D01*
X140989523Y-54962380D02*
X140418095Y-54962380D01*
X140703809Y-54962380D02*
X140703809Y-53962380D01*
X140608571Y-54105238D01*
X140513333Y-54200476D01*
X140418095Y-54248095D01*
G04 #@! TO.C,H2*
X192358095Y-36652380D02*
X192358095Y-35652380D01*
X192358095Y-36128571D02*
X192929523Y-36128571D01*
X192929523Y-36652380D02*
X192929523Y-35652380D01*
X193358095Y-35747619D02*
X193405714Y-35700000D01*
X193500952Y-35652380D01*
X193739047Y-35652380D01*
X193834285Y-35700000D01*
X193881904Y-35747619D01*
X193929523Y-35842857D01*
X193929523Y-35938095D01*
X193881904Y-36080952D01*
X193310476Y-36652380D01*
X193929523Y-36652380D01*
G04 #@! TO.C,H3*
X139548095Y-99562380D02*
X139548095Y-98562380D01*
X139548095Y-99038571D02*
X140119523Y-99038571D01*
X140119523Y-99562380D02*
X140119523Y-98562380D01*
X140500476Y-98562380D02*
X141119523Y-98562380D01*
X140786190Y-98943333D01*
X140929047Y-98943333D01*
X141024285Y-98990952D01*
X141071904Y-99038571D01*
X141119523Y-99133809D01*
X141119523Y-99371904D01*
X141071904Y-99467142D01*
X141024285Y-99514761D01*
X140929047Y-99562380D01*
X140643333Y-99562380D01*
X140548095Y-99514761D01*
X140500476Y-99467142D01*
G04 #@! TD*
M02*
