G04 #@! TF.GenerationSoftware,KiCad,Pcbnew,5.0.2+dfsg1-1*
G04 #@! TF.CreationDate,2019-08-24T10:47:54+02:00*
G04 #@! TF.ProjectId,oskar-pcb_v01,6f736b61-722d-4706-9362-5f7630312e6b,rev?*
G04 #@! TF.SameCoordinates,Original*
G04 #@! TF.FileFunction,Copper,L2,Bot*
G04 #@! TF.FilePolarity,Positive*
%FSLAX46Y46*%
G04 Gerber Fmt 4.6, Leading zero omitted, Abs format (unit mm)*
G04 Created by KiCad (PCBNEW 5.0.2+dfsg1-1) date Sat 24 Aug 2019 10:47:54 CEST*
%MOMM*%
%LPD*%
G01*
G04 APERTURE LIST*
G04 #@! TA.AperFunction,ComponentPad*
%ADD10C,2.032000*%
G04 #@! TD*
G04 #@! TA.AperFunction,ComponentPad*
%ADD11R,1.200000X1.700000*%
G04 #@! TD*
G04 #@! TA.AperFunction,ComponentPad*
%ADD12O,1.200000X1.700000*%
G04 #@! TD*
G04 #@! TA.AperFunction,ComponentPad*
%ADD13C,1.998980*%
G04 #@! TD*
G04 #@! TA.AperFunction,ComponentPad*
%ADD14C,2.000000*%
G04 #@! TD*
G04 #@! TA.AperFunction,ComponentPad*
%ADD15C,1.700000*%
G04 #@! TD*
G04 #@! TA.AperFunction,ComponentPad*
%ADD16C,1.800000*%
G04 #@! TD*
G04 #@! TA.AperFunction,Conductor*
%ADD17C,0.500000*%
G04 #@! TD*
G04 #@! TA.AperFunction,Conductor*
%ADD18C,0.300000*%
G04 #@! TD*
G04 #@! TA.AperFunction,Conductor*
%ADD19C,0.254000*%
G04 #@! TD*
G04 APERTURE END LIST*
D10*
G04 #@! TO.P,SW4,1*
G04 #@! TO.N,4*
X157760000Y-49653600D03*
G04 #@! TO.P,SW4,2*
G04 #@! TO.N,GRND*
X152760000Y-47553600D03*
G04 #@! TD*
G04 #@! TO.P,SW1,1*
G04 #@! TO.N,1*
X176260000Y-49653600D03*
G04 #@! TO.P,SW1,2*
G04 #@! TO.N,GRND*
X171260000Y-47553600D03*
G04 #@! TD*
G04 #@! TO.P,SW2,1*
G04 #@! TO.N,2*
X176260000Y-67153600D03*
G04 #@! TO.P,SW2,2*
G04 #@! TO.N,GRND*
X171260000Y-65053600D03*
G04 #@! TD*
G04 #@! TO.P,SW3,1*
G04 #@! TO.N,3*
X176260000Y-84653600D03*
G04 #@! TO.P,SW3,2*
G04 #@! TO.N,GRND*
X171260000Y-82553600D03*
G04 #@! TD*
G04 #@! TO.P,SW5,1*
G04 #@! TO.N,5*
X157760000Y-67153600D03*
G04 #@! TO.P,SW5,2*
G04 #@! TO.N,GRND*
X152760000Y-65053600D03*
G04 #@! TD*
G04 #@! TO.P,SW6,1*
G04 #@! TO.N,6*
X157760000Y-84653600D03*
G04 #@! TO.P,SW6,2*
G04 #@! TO.N,GRND*
X152760000Y-82553600D03*
G04 #@! TD*
G04 #@! TO.P,SW7,1*
G04 #@! TO.N,7*
X176260000Y-102153600D03*
G04 #@! TO.P,SW7,2*
G04 #@! TO.N,GRND*
X171260000Y-100053600D03*
G04 #@! TD*
G04 #@! TO.P,SW8,1*
G04 #@! TO.N,8*
X157760000Y-102153600D03*
G04 #@! TO.P,SW8,2*
G04 #@! TO.N,GRND*
X152760000Y-100053600D03*
G04 #@! TD*
D11*
G04 #@! TO.P,P2,1*
G04 #@! TO.N,Net-(P2-Pad1)*
X189850000Y-55890000D03*
D12*
G04 #@! TO.P,P2,2*
G04 #@! TO.N,GND*
X187850000Y-55890000D03*
G04 #@! TD*
D13*
G04 #@! TO.P,R1,1*
G04 #@! TO.N,GND*
X145680000Y-55400000D03*
G04 #@! TO.P,R1,2*
G04 #@! TO.N,GRND*
X145680000Y-65560000D03*
G04 #@! TD*
D14*
G04 #@! TO.P,SW9,*
G04 #@! TO.N,*
X133670000Y-45600000D03*
X145670000Y-45600000D03*
X145670000Y-39600000D03*
X133670000Y-39600000D03*
D15*
G04 #@! TO.P,SW9,1*
G04 #@! TO.N,N/C*
X135670000Y-43850000D03*
G04 #@! TO.P,SW9,2*
G04 #@! TO.N,Net-(P2-Pad1)*
X139670000Y-43850000D03*
G04 #@! TO.P,SW9,3*
G04 #@! TO.N,Net-(SW9-Pad3)*
X143670000Y-43850000D03*
G04 #@! TD*
D16*
G04 #@! TO.P,U1,32*
G04 #@! TO.N,GND*
X143051110Y-93503600D03*
G04 #@! TO.P,U1,31*
G04 #@! TO.N,N/C*
X143051110Y-90963600D03*
G04 #@! TO.P,U1,30*
X143051110Y-88423600D03*
G04 #@! TO.P,U1,29*
X143051110Y-85883600D03*
G04 #@! TO.P,U1,28*
X143051110Y-83343600D03*
G04 #@! TO.P,U1,27*
X143051110Y-80803600D03*
G04 #@! TO.P,U1,26*
X143051110Y-78263600D03*
G04 #@! TO.P,U1,25*
X143051110Y-75723600D03*
G04 #@! TO.P,U1,16*
G04 #@! TO.N,Net-(SW9-Pad3)*
X165911110Y-93503600D03*
G04 #@! TO.P,U1,15*
G04 #@! TO.N,N/C*
X165911110Y-90963600D03*
G04 #@! TO.P,U1,14*
X165911110Y-88423600D03*
G04 #@! TO.P,U1,13*
G04 #@! TO.N,7*
X165911110Y-85883600D03*
G04 #@! TO.P,U1,12*
G04 #@! TO.N,8*
X165911110Y-83343600D03*
G04 #@! TO.P,U1,11*
G04 #@! TO.N,6*
X165911110Y-80803600D03*
G04 #@! TO.P,U1,10*
G04 #@! TO.N,3*
X165911110Y-78263600D03*
G04 #@! TO.P,U1,9*
G04 #@! TO.N,5*
X165911110Y-75723600D03*
G04 #@! TO.P,U1,8*
G04 #@! TO.N,2*
X165911110Y-73183600D03*
G04 #@! TO.P,U1,7*
G04 #@! TO.N,4*
X165911110Y-70643600D03*
G04 #@! TO.P,U1,6*
G04 #@! TO.N,1*
X165911110Y-68103600D03*
G04 #@! TO.P,U1,5*
G04 #@! TO.N,N/C*
X165911110Y-65563600D03*
G04 #@! TO.P,U1,4*
X165911110Y-63023600D03*
G04 #@! TO.P,U1,3*
X165911110Y-60483600D03*
G04 #@! TO.P,U1,2*
X165911110Y-57943600D03*
G04 #@! TO.P,U1,1*
X165911110Y-55403600D03*
G04 #@! TO.P,U1,24*
X143051110Y-73183600D03*
G04 #@! TO.P,U1,23*
X143051110Y-70643600D03*
G04 #@! TO.P,U1,22*
X143051110Y-68103600D03*
G04 #@! TO.P,U1,21*
X143051110Y-65563600D03*
G04 #@! TO.P,U1,20*
X143051110Y-63023600D03*
G04 #@! TO.P,U1,19*
X143051110Y-60483600D03*
G04 #@! TO.P,U1,18*
X143051110Y-57943600D03*
G04 #@! TO.P,U1,17*
G04 #@! TO.N,GND*
X143051110Y-55403600D03*
G04 #@! TD*
D17*
G04 #@! TO.N,GND*
X187850000Y-55890000D02*
X187850000Y-46870000D01*
X187850000Y-46870000D02*
X181660000Y-40680000D01*
X181660000Y-40680000D02*
X150930000Y-40680000D01*
X150930000Y-40680000D02*
X148530000Y-43080000D01*
X148530000Y-43080000D02*
X147080000Y-47330000D01*
X147080000Y-47330000D02*
X145680000Y-49950000D01*
X145680000Y-49950000D02*
X145680000Y-52600000D01*
X145680000Y-52600000D02*
X145680000Y-55400000D01*
D18*
G04 #@! TO.N,GRND*
X171260000Y-65053600D02*
X171260000Y-64000000D01*
X173230000Y-49523600D02*
X171260000Y-47553600D01*
X173230000Y-62030000D02*
X173230000Y-49523600D01*
X171260000Y-64000000D02*
X173230000Y-62030000D01*
X171260000Y-82553600D02*
X171260000Y-81540000D01*
X171260000Y-81540000D02*
X172950000Y-79850000D01*
X172950000Y-66743600D02*
X171260000Y-65053600D01*
X172950000Y-79850000D02*
X172950000Y-66743600D01*
X171260000Y-100053600D02*
X171260000Y-98980000D01*
X173560000Y-84853600D02*
X171260000Y-82553600D01*
X173560000Y-96680000D02*
X173560000Y-84853600D01*
X171260000Y-98980000D02*
X173560000Y-96680000D01*
X152760000Y-100053600D02*
X171260000Y-100053600D01*
X152760000Y-82553600D02*
X152760000Y-92350000D01*
X154840000Y-97973600D02*
X152760000Y-100053600D01*
X154840000Y-94430000D02*
X154840000Y-97973600D01*
X152760000Y-92350000D02*
X154840000Y-94430000D01*
X152760000Y-65053600D02*
X152760000Y-75480000D01*
X154960000Y-80353600D02*
X152760000Y-82553600D01*
X154960000Y-77680000D02*
X154960000Y-80353600D01*
X152760000Y-75480000D02*
X154960000Y-77680000D01*
X145680000Y-65560000D02*
X152253600Y-65560000D01*
X152253600Y-65560000D02*
X154730000Y-63083600D01*
X154730000Y-63083600D02*
X154730000Y-49523600D01*
X154730000Y-49523600D02*
X152760000Y-47553600D01*
G04 #@! TD*
D19*
G04 #@! TO.N,GND*
G36*
X193816100Y-43318600D02*
X192468562Y-43318600D01*
X192401100Y-43305181D01*
X192333639Y-43318600D01*
X192333638Y-43318600D01*
X192133827Y-43358345D01*
X191907243Y-43509743D01*
X191755845Y-43736327D01*
X191702681Y-44003600D01*
X191716101Y-44071067D01*
X191716100Y-62418600D01*
X187568562Y-62418600D01*
X187501100Y-62405181D01*
X187433639Y-62418600D01*
X187433638Y-62418600D01*
X187233827Y-62458345D01*
X187007243Y-62609743D01*
X186855845Y-62836327D01*
X186802681Y-63103600D01*
X186816101Y-63171067D01*
X186816100Y-104318600D01*
X132466100Y-104318600D01*
X132466100Y-101059031D01*
X134046100Y-101059031D01*
X134046100Y-101948169D01*
X134386359Y-102769626D01*
X135015074Y-103398341D01*
X135836531Y-103738600D01*
X136725669Y-103738600D01*
X137547126Y-103398341D01*
X138175841Y-102769626D01*
X138516100Y-101948169D01*
X138516100Y-101059031D01*
X138175841Y-100237574D01*
X137547126Y-99608859D01*
X136725669Y-99268600D01*
X135836531Y-99268600D01*
X135015074Y-99608859D01*
X134386359Y-100237574D01*
X134046100Y-101059031D01*
X132466100Y-101059031D01*
X132466100Y-97688600D01*
X141713649Y-97688600D01*
X141781110Y-97702019D01*
X142048383Y-97648855D01*
X142274967Y-97497457D01*
X142426365Y-97270873D01*
X142466110Y-97071062D01*
X142479529Y-97003600D01*
X142466110Y-96936138D01*
X142466110Y-95938324D01*
X150675000Y-95938324D01*
X150675000Y-96568876D01*
X150916302Y-97151430D01*
X151362170Y-97597298D01*
X151944724Y-97838600D01*
X152575276Y-97838600D01*
X153157830Y-97597298D01*
X153603698Y-97151430D01*
X153845000Y-96568876D01*
X153845000Y-95938324D01*
X153603698Y-95355770D01*
X153157830Y-94909902D01*
X152575276Y-94668600D01*
X151944724Y-94668600D01*
X151362170Y-94909902D01*
X150916302Y-95355770D01*
X150675000Y-95938324D01*
X142466110Y-95938324D01*
X142466110Y-94924079D01*
X142810446Y-95050058D01*
X143420570Y-95024439D01*
X143865258Y-94840243D01*
X143951664Y-94583759D01*
X143051110Y-93683205D01*
X143036968Y-93697348D01*
X142857363Y-93517743D01*
X142871505Y-93503600D01*
X143230715Y-93503600D01*
X144131269Y-94404154D01*
X144387753Y-94317748D01*
X144597568Y-93744264D01*
X144571949Y-93134140D01*
X144387753Y-92689452D01*
X144131269Y-92603046D01*
X143230715Y-93503600D01*
X142871505Y-93503600D01*
X142857363Y-93489458D01*
X143036968Y-93309853D01*
X143051110Y-93323995D01*
X143951664Y-92423441D01*
X143900995Y-92273038D01*
X143920617Y-92264910D01*
X144352420Y-91833107D01*
X144586110Y-91268930D01*
X144586110Y-90658270D01*
X144352420Y-90094093D01*
X143951927Y-89693600D01*
X144352420Y-89293107D01*
X144586110Y-88728930D01*
X144586110Y-88118270D01*
X144352420Y-87554093D01*
X143951927Y-87153600D01*
X144352420Y-86753107D01*
X144586110Y-86188930D01*
X144586110Y-85578270D01*
X144352420Y-85014093D01*
X143951927Y-84613600D01*
X144352420Y-84213107D01*
X144586110Y-83648930D01*
X144586110Y-83038270D01*
X144352420Y-82474093D01*
X143951927Y-82073600D01*
X144352420Y-81673107D01*
X144586110Y-81108930D01*
X144586110Y-80498270D01*
X144352420Y-79934093D01*
X143951927Y-79533600D01*
X144352420Y-79133107D01*
X144586110Y-78568930D01*
X144586110Y-78438324D01*
X150675000Y-78438324D01*
X150675000Y-79068876D01*
X150916302Y-79651430D01*
X151362170Y-80097298D01*
X151944724Y-80338600D01*
X152575276Y-80338600D01*
X153157830Y-80097298D01*
X153603698Y-79651430D01*
X153845000Y-79068876D01*
X153845000Y-78438324D01*
X153603698Y-77855770D01*
X153157830Y-77409902D01*
X152575276Y-77168600D01*
X151944724Y-77168600D01*
X151362170Y-77409902D01*
X150916302Y-77855770D01*
X150675000Y-78438324D01*
X144586110Y-78438324D01*
X144586110Y-77958270D01*
X144352420Y-77394093D01*
X143951927Y-76993600D01*
X144352420Y-76593107D01*
X144586110Y-76028930D01*
X144586110Y-75418270D01*
X144352420Y-74854093D01*
X143951927Y-74453600D01*
X144352420Y-74053107D01*
X144586110Y-73488930D01*
X144586110Y-72878270D01*
X144352420Y-72314093D01*
X143951927Y-71913600D01*
X144352420Y-71513107D01*
X144586110Y-70948930D01*
X144586110Y-70338270D01*
X144352420Y-69774093D01*
X143951927Y-69373600D01*
X144352420Y-68973107D01*
X144586110Y-68408930D01*
X144586110Y-67798270D01*
X144352420Y-67234093D01*
X143951927Y-66833600D01*
X144297005Y-66488523D01*
X144754136Y-66945654D01*
X145354880Y-67194490D01*
X146005120Y-67194490D01*
X146605864Y-66945654D01*
X147065654Y-66485864D01*
X147124002Y-66345000D01*
X151716534Y-66345000D01*
X151824784Y-66453250D01*
X151975000Y-66515472D01*
X151975001Y-75402683D01*
X151959622Y-75480000D01*
X152020546Y-75786291D01*
X152150251Y-75980408D01*
X152150254Y-75980411D01*
X152194048Y-76045953D01*
X152259590Y-76089747D01*
X154175000Y-78005158D01*
X154175001Y-80028441D01*
X153238621Y-80964822D01*
X153088404Y-80902600D01*
X152431596Y-80902600D01*
X151824784Y-81153950D01*
X151360350Y-81618384D01*
X151109000Y-82225196D01*
X151109000Y-82882004D01*
X151360350Y-83488816D01*
X151824784Y-83953250D01*
X151975000Y-84015472D01*
X151975001Y-92272683D01*
X151959622Y-92350000D01*
X152020546Y-92656291D01*
X152150251Y-92850408D01*
X152150254Y-92850411D01*
X152194048Y-92915953D01*
X152259590Y-92959747D01*
X154055000Y-94755158D01*
X154055001Y-97648441D01*
X153238621Y-98464822D01*
X153088404Y-98402600D01*
X152431596Y-98402600D01*
X151824784Y-98653950D01*
X151360350Y-99118384D01*
X151109000Y-99725196D01*
X151109000Y-100382004D01*
X151360350Y-100988816D01*
X151824784Y-101453250D01*
X152431596Y-101704600D01*
X153088404Y-101704600D01*
X153695216Y-101453250D01*
X154159650Y-100988816D01*
X154221872Y-100838600D01*
X156740134Y-100838600D01*
X156360350Y-101218384D01*
X156109000Y-101825196D01*
X156109000Y-102482004D01*
X156360350Y-103088816D01*
X156824784Y-103553250D01*
X157431596Y-103804600D01*
X158088404Y-103804600D01*
X158695216Y-103553250D01*
X159159650Y-103088816D01*
X159411000Y-102482004D01*
X159411000Y-101825196D01*
X174609000Y-101825196D01*
X174609000Y-102482004D01*
X174860350Y-103088816D01*
X175324784Y-103553250D01*
X175931596Y-103804600D01*
X176588404Y-103804600D01*
X177195216Y-103553250D01*
X177659650Y-103088816D01*
X177911000Y-102482004D01*
X177911000Y-101825196D01*
X177659650Y-101218384D01*
X177195216Y-100753950D01*
X176588404Y-100502600D01*
X175931596Y-100502600D01*
X175324784Y-100753950D01*
X174860350Y-101218384D01*
X174609000Y-101825196D01*
X159411000Y-101825196D01*
X159159650Y-101218384D01*
X158779866Y-100838600D01*
X169798128Y-100838600D01*
X169860350Y-100988816D01*
X170324784Y-101453250D01*
X170931596Y-101704600D01*
X171588404Y-101704600D01*
X172195216Y-101453250D01*
X172659650Y-100988816D01*
X172911000Y-100382004D01*
X172911000Y-99725196D01*
X172659650Y-99118384D01*
X172445712Y-98904446D01*
X174060411Y-97289747D01*
X174125953Y-97245953D01*
X174136884Y-97229593D01*
X174280483Y-97576271D01*
X174937329Y-98233117D01*
X175795540Y-98588600D01*
X176724460Y-98588600D01*
X177582671Y-98233117D01*
X178239517Y-97576271D01*
X178595000Y-96718060D01*
X178595000Y-95938324D01*
X180175000Y-95938324D01*
X180175000Y-96568876D01*
X180416302Y-97151430D01*
X180862170Y-97597298D01*
X181444724Y-97838600D01*
X182075276Y-97838600D01*
X182657830Y-97597298D01*
X183103698Y-97151430D01*
X183345000Y-96568876D01*
X183345000Y-95938324D01*
X183103698Y-95355770D01*
X182657830Y-94909902D01*
X182075276Y-94668600D01*
X181444724Y-94668600D01*
X180862170Y-94909902D01*
X180416302Y-95355770D01*
X180175000Y-95938324D01*
X178595000Y-95938324D01*
X178595000Y-95789140D01*
X178239517Y-94930929D01*
X177582671Y-94274083D01*
X176724460Y-93918600D01*
X175795540Y-93918600D01*
X174937329Y-94274083D01*
X174345000Y-94866412D01*
X174345000Y-84930910D01*
X174360378Y-84853599D01*
X174345000Y-84776288D01*
X174345000Y-84776284D01*
X174299454Y-84547308D01*
X174219885Y-84428225D01*
X174169749Y-84353191D01*
X174169747Y-84353189D01*
X174151043Y-84325196D01*
X174609000Y-84325196D01*
X174609000Y-84982004D01*
X174860350Y-85588816D01*
X175324784Y-86053250D01*
X175931596Y-86304600D01*
X176588404Y-86304600D01*
X177195216Y-86053250D01*
X177659650Y-85588816D01*
X177911000Y-84982004D01*
X177911000Y-84325196D01*
X177659650Y-83718384D01*
X177195216Y-83253950D01*
X176588404Y-83002600D01*
X175931596Y-83002600D01*
X175324784Y-83253950D01*
X174860350Y-83718384D01*
X174609000Y-84325196D01*
X174151043Y-84325196D01*
X174125953Y-84287647D01*
X174060411Y-84243853D01*
X172848778Y-83032221D01*
X172911000Y-82882004D01*
X172911000Y-82225196D01*
X172659650Y-81618384D01*
X172475712Y-81434446D01*
X173450411Y-80459747D01*
X173515953Y-80415953D01*
X173559747Y-80350411D01*
X173559749Y-80350409D01*
X173689454Y-80156292D01*
X173689454Y-80156291D01*
X173735000Y-79927316D01*
X173735000Y-79927312D01*
X173750378Y-79850000D01*
X173735000Y-79772688D01*
X173735000Y-78289140D01*
X173925000Y-78289140D01*
X173925000Y-79218060D01*
X174280483Y-80076271D01*
X174937329Y-80733117D01*
X175795540Y-81088600D01*
X176724460Y-81088600D01*
X177582671Y-80733117D01*
X178239517Y-80076271D01*
X178595000Y-79218060D01*
X178595000Y-78438324D01*
X180175000Y-78438324D01*
X180175000Y-79068876D01*
X180416302Y-79651430D01*
X180862170Y-80097298D01*
X181444724Y-80338600D01*
X182075276Y-80338600D01*
X182657830Y-80097298D01*
X183103698Y-79651430D01*
X183345000Y-79068876D01*
X183345000Y-78438324D01*
X183103698Y-77855770D01*
X182657830Y-77409902D01*
X182075276Y-77168600D01*
X181444724Y-77168600D01*
X180862170Y-77409902D01*
X180416302Y-77855770D01*
X180175000Y-78438324D01*
X178595000Y-78438324D01*
X178595000Y-78289140D01*
X178239517Y-77430929D01*
X177582671Y-76774083D01*
X176724460Y-76418600D01*
X175795540Y-76418600D01*
X174937329Y-76774083D01*
X174280483Y-77430929D01*
X173925000Y-78289140D01*
X173735000Y-78289140D01*
X173735000Y-66825196D01*
X174609000Y-66825196D01*
X174609000Y-67482004D01*
X174860350Y-68088816D01*
X175324784Y-68553250D01*
X175931596Y-68804600D01*
X176588404Y-68804600D01*
X177195216Y-68553250D01*
X177659650Y-68088816D01*
X177911000Y-67482004D01*
X177911000Y-66825196D01*
X177659650Y-66218384D01*
X177195216Y-65753950D01*
X176588404Y-65502600D01*
X175931596Y-65502600D01*
X175324784Y-65753950D01*
X174860350Y-66218384D01*
X174609000Y-66825196D01*
X173735000Y-66825196D01*
X173735000Y-66820912D01*
X173750378Y-66743600D01*
X173735000Y-66666288D01*
X173735000Y-66666284D01*
X173689454Y-66437308D01*
X173638051Y-66360378D01*
X173559749Y-66243191D01*
X173559747Y-66243189D01*
X173515953Y-66177647D01*
X173450411Y-66133853D01*
X172848778Y-65532221D01*
X172911000Y-65382004D01*
X172911000Y-64725196D01*
X172659650Y-64118384D01*
X172455712Y-63914446D01*
X173730408Y-62639749D01*
X173795953Y-62595953D01*
X173969454Y-62336292D01*
X174015000Y-62107316D01*
X174015000Y-62107312D01*
X174030378Y-62030000D01*
X174015000Y-61952688D01*
X174015000Y-61935339D01*
X174280483Y-62576271D01*
X174937329Y-63233117D01*
X175795540Y-63588600D01*
X176724460Y-63588600D01*
X177582671Y-63233117D01*
X178239517Y-62576271D01*
X178595000Y-61718060D01*
X178595000Y-60938324D01*
X180175000Y-60938324D01*
X180175000Y-61568876D01*
X180416302Y-62151430D01*
X180862170Y-62597298D01*
X181444724Y-62838600D01*
X182075276Y-62838600D01*
X182657830Y-62597298D01*
X183103698Y-62151430D01*
X183345000Y-61568876D01*
X183345000Y-60938324D01*
X183103698Y-60355770D01*
X182657830Y-59909902D01*
X182075276Y-59668600D01*
X181444724Y-59668600D01*
X180862170Y-59909902D01*
X180416302Y-60355770D01*
X180175000Y-60938324D01*
X178595000Y-60938324D01*
X178595000Y-60789140D01*
X178239517Y-59930929D01*
X177582671Y-59274083D01*
X176724460Y-58918600D01*
X175795540Y-58918600D01*
X174937329Y-59274083D01*
X174280483Y-59930929D01*
X174015000Y-60571861D01*
X174015000Y-56212696D01*
X186604744Y-56212696D01*
X186727353Y-56683701D01*
X187020875Y-57071933D01*
X187440624Y-57318286D01*
X187532391Y-57333462D01*
X187723000Y-57208731D01*
X187723000Y-56017000D01*
X186767453Y-56017000D01*
X186604744Y-56212696D01*
X174015000Y-56212696D01*
X174015000Y-55567304D01*
X186604744Y-55567304D01*
X186767453Y-55763000D01*
X187723000Y-55763000D01*
X187723000Y-54571269D01*
X187977000Y-54571269D01*
X187977000Y-55763000D01*
X187997000Y-55763000D01*
X187997000Y-56017000D01*
X187977000Y-56017000D01*
X187977000Y-57208731D01*
X188167609Y-57333462D01*
X188259376Y-57318286D01*
X188679125Y-57071933D01*
X188694497Y-57051601D01*
X188792191Y-57197809D01*
X189002235Y-57338157D01*
X189250000Y-57387440D01*
X190450000Y-57387440D01*
X190697765Y-57338157D01*
X190907809Y-57197809D01*
X191048157Y-56987765D01*
X191097440Y-56740000D01*
X191097440Y-55040000D01*
X191048157Y-54792235D01*
X190907809Y-54582191D01*
X190697765Y-54441843D01*
X190450000Y-54392560D01*
X189250000Y-54392560D01*
X189002235Y-54441843D01*
X188792191Y-54582191D01*
X188694497Y-54728399D01*
X188679125Y-54708067D01*
X188259376Y-54461714D01*
X188167609Y-54446538D01*
X187977000Y-54571269D01*
X187723000Y-54571269D01*
X187532391Y-54446538D01*
X187440624Y-54461714D01*
X187020875Y-54708067D01*
X186727353Y-55096299D01*
X186604744Y-55567304D01*
X174015000Y-55567304D01*
X174015000Y-49600912D01*
X174030378Y-49523600D01*
X174015000Y-49446288D01*
X174015000Y-49446284D01*
X173990915Y-49325196D01*
X174609000Y-49325196D01*
X174609000Y-49982004D01*
X174860350Y-50588816D01*
X175324784Y-51053250D01*
X175931596Y-51304600D01*
X176588404Y-51304600D01*
X177195216Y-51053250D01*
X177659650Y-50588816D01*
X177911000Y-49982004D01*
X177911000Y-49325196D01*
X177659650Y-48718384D01*
X177195216Y-48253950D01*
X176588404Y-48002600D01*
X175931596Y-48002600D01*
X175324784Y-48253950D01*
X174860350Y-48718384D01*
X174609000Y-49325196D01*
X173990915Y-49325196D01*
X173969454Y-49217308D01*
X173795953Y-48957647D01*
X173730408Y-48913851D01*
X172848778Y-48032221D01*
X172911000Y-47882004D01*
X172911000Y-47225196D01*
X172659650Y-46618384D01*
X172195216Y-46153950D01*
X171588404Y-45902600D01*
X170931596Y-45902600D01*
X170324784Y-46153950D01*
X169860350Y-46618384D01*
X169609000Y-47225196D01*
X169609000Y-47882004D01*
X169860350Y-48488816D01*
X170324784Y-48953250D01*
X170931596Y-49204600D01*
X171588404Y-49204600D01*
X171738621Y-49142378D01*
X172445001Y-49848758D01*
X172445000Y-61704843D01*
X172178146Y-61971697D01*
X172345000Y-61568876D01*
X172345000Y-60938324D01*
X172103698Y-60355770D01*
X171657830Y-59909902D01*
X171075276Y-59668600D01*
X170444724Y-59668600D01*
X169862170Y-59909902D01*
X169416302Y-60355770D01*
X169175000Y-60938324D01*
X169175000Y-61568876D01*
X169416302Y-62151430D01*
X169862170Y-62597298D01*
X170444724Y-62838600D01*
X171075276Y-62838600D01*
X171478097Y-62671746D01*
X170759590Y-63390253D01*
X170694048Y-63434047D01*
X170650254Y-63499589D01*
X170650251Y-63499592D01*
X170632194Y-63526617D01*
X170324784Y-63653950D01*
X169860350Y-64118384D01*
X169609000Y-64725196D01*
X169609000Y-65382004D01*
X169860350Y-65988816D01*
X170324784Y-66453250D01*
X170931596Y-66704600D01*
X171588404Y-66704600D01*
X171738621Y-66642378D01*
X172165001Y-67068759D01*
X172165000Y-78003766D01*
X172103698Y-77855770D01*
X171657830Y-77409902D01*
X171075276Y-77168600D01*
X170444724Y-77168600D01*
X169862170Y-77409902D01*
X169416302Y-77855770D01*
X169175000Y-78438324D01*
X169175000Y-79068876D01*
X169416302Y-79651430D01*
X169862170Y-80097298D01*
X170444724Y-80338600D01*
X171075276Y-80338600D01*
X171546381Y-80143462D01*
X170759590Y-80930253D01*
X170694048Y-80974047D01*
X170669150Y-81011309D01*
X170324784Y-81153950D01*
X169860350Y-81618384D01*
X169609000Y-82225196D01*
X169609000Y-82882004D01*
X169860350Y-83488816D01*
X170324784Y-83953250D01*
X170931596Y-84204600D01*
X171588404Y-84204600D01*
X171738621Y-84142378D01*
X172775001Y-85178759D01*
X172775000Y-96354842D01*
X172192288Y-96937554D01*
X172345000Y-96568876D01*
X172345000Y-95938324D01*
X172103698Y-95355770D01*
X171657830Y-94909902D01*
X171075276Y-94668600D01*
X170444724Y-94668600D01*
X169862170Y-94909902D01*
X169416302Y-95355770D01*
X169175000Y-95938324D01*
X169175000Y-96568876D01*
X169416302Y-97151430D01*
X169862170Y-97597298D01*
X170444724Y-97838600D01*
X171075276Y-97838600D01*
X171443954Y-97685888D01*
X170759590Y-98370253D01*
X170694048Y-98414047D01*
X170650254Y-98479589D01*
X170650251Y-98479592D01*
X170613716Y-98534270D01*
X170324784Y-98653950D01*
X169860350Y-99118384D01*
X169798128Y-99268600D01*
X154655158Y-99268600D01*
X155340411Y-98583347D01*
X155405953Y-98539553D01*
X155449747Y-98474011D01*
X155449749Y-98474009D01*
X155499885Y-98398975D01*
X155579454Y-98279892D01*
X155625000Y-98050916D01*
X155625000Y-98050912D01*
X155640378Y-97973601D01*
X155625000Y-97896290D01*
X155625000Y-97200902D01*
X155780483Y-97576271D01*
X156437329Y-98233117D01*
X157295540Y-98588600D01*
X158224460Y-98588600D01*
X159082671Y-98233117D01*
X159739517Y-97576271D01*
X160095000Y-96718060D01*
X160095000Y-95938324D01*
X161675000Y-95938324D01*
X161675000Y-96568876D01*
X161916302Y-97151430D01*
X162362170Y-97597298D01*
X162944724Y-97838600D01*
X163575276Y-97838600D01*
X164157830Y-97597298D01*
X164603698Y-97151430D01*
X164845000Y-96568876D01*
X164845000Y-95938324D01*
X164603698Y-95355770D01*
X164157830Y-94909902D01*
X163575276Y-94668600D01*
X162944724Y-94668600D01*
X162362170Y-94909902D01*
X161916302Y-95355770D01*
X161675000Y-95938324D01*
X160095000Y-95938324D01*
X160095000Y-95789140D01*
X159739517Y-94930929D01*
X159082671Y-94274083D01*
X158224460Y-93918600D01*
X157295540Y-93918600D01*
X156437329Y-94274083D01*
X155780483Y-94930929D01*
X155625000Y-95306298D01*
X155625000Y-94507310D01*
X155640378Y-94429999D01*
X155625000Y-94352688D01*
X155625000Y-94352684D01*
X155579454Y-94123708D01*
X155499885Y-94004625D01*
X155449749Y-93929591D01*
X155449747Y-93929589D01*
X155405953Y-93864047D01*
X155340411Y-93820253D01*
X153545000Y-92024843D01*
X153545000Y-84325196D01*
X156109000Y-84325196D01*
X156109000Y-84982004D01*
X156360350Y-85588816D01*
X156824784Y-86053250D01*
X157431596Y-86304600D01*
X158088404Y-86304600D01*
X158695216Y-86053250D01*
X159159650Y-85588816D01*
X159411000Y-84982004D01*
X159411000Y-84325196D01*
X159159650Y-83718384D01*
X158695216Y-83253950D01*
X158088404Y-83002600D01*
X157431596Y-83002600D01*
X156824784Y-83253950D01*
X156360350Y-83718384D01*
X156109000Y-84325196D01*
X153545000Y-84325196D01*
X153545000Y-84015472D01*
X153695216Y-83953250D01*
X154159650Y-83488816D01*
X154411000Y-82882004D01*
X154411000Y-82225196D01*
X154348778Y-82074979D01*
X155460411Y-80963347D01*
X155525953Y-80919553D01*
X155569747Y-80854011D01*
X155569749Y-80854009D01*
X155699454Y-80659892D01*
X155713465Y-80589454D01*
X155745000Y-80430916D01*
X155745000Y-80430912D01*
X155760378Y-80353600D01*
X155745000Y-80276288D01*
X155745000Y-79990608D01*
X155780483Y-80076271D01*
X156437329Y-80733117D01*
X157295540Y-81088600D01*
X158224460Y-81088600D01*
X159082671Y-80733117D01*
X159739517Y-80076271D01*
X160095000Y-79218060D01*
X160095000Y-78289140D01*
X159739517Y-77430929D01*
X159082671Y-76774083D01*
X158224460Y-76418600D01*
X157295540Y-76418600D01*
X156437329Y-76774083D01*
X155780483Y-77430929D01*
X155733431Y-77544522D01*
X155699454Y-77373708D01*
X155622541Y-77258600D01*
X155569749Y-77179591D01*
X155569747Y-77179589D01*
X155525953Y-77114047D01*
X155460411Y-77070253D01*
X153545000Y-75154843D01*
X153545000Y-66825196D01*
X156109000Y-66825196D01*
X156109000Y-67482004D01*
X156360350Y-68088816D01*
X156824784Y-68553250D01*
X157431596Y-68804600D01*
X158088404Y-68804600D01*
X158695216Y-68553250D01*
X159159650Y-68088816D01*
X159411000Y-67482004D01*
X159411000Y-66825196D01*
X159159650Y-66218384D01*
X158695216Y-65753950D01*
X158088404Y-65502600D01*
X157431596Y-65502600D01*
X156824784Y-65753950D01*
X156360350Y-66218384D01*
X156109000Y-66825196D01*
X153545000Y-66825196D01*
X153545000Y-66515472D01*
X153695216Y-66453250D01*
X154159650Y-65988816D01*
X154411000Y-65382004D01*
X154411000Y-64725196D01*
X154348778Y-64574979D01*
X155230411Y-63693347D01*
X155295953Y-63649553D01*
X155339747Y-63584011D01*
X155339749Y-63584009D01*
X155439950Y-63434047D01*
X155469454Y-63389892D01*
X155515000Y-63160916D01*
X155515000Y-63160912D01*
X155530378Y-63083601D01*
X155515000Y-63006290D01*
X155515000Y-61935339D01*
X155780483Y-62576271D01*
X156437329Y-63233117D01*
X157295540Y-63588600D01*
X158224460Y-63588600D01*
X159082671Y-63233117D01*
X159739517Y-62576271D01*
X160095000Y-61718060D01*
X160095000Y-60938324D01*
X161675000Y-60938324D01*
X161675000Y-61568876D01*
X161916302Y-62151430D01*
X162362170Y-62597298D01*
X162944724Y-62838600D01*
X163575276Y-62838600D01*
X164157830Y-62597298D01*
X164603698Y-62151430D01*
X164839309Y-61582616D01*
X165010293Y-61753600D01*
X164609800Y-62154093D01*
X164376110Y-62718270D01*
X164376110Y-63328930D01*
X164609800Y-63893107D01*
X165010293Y-64293600D01*
X164609800Y-64694093D01*
X164376110Y-65258270D01*
X164376110Y-65868930D01*
X164609800Y-66433107D01*
X165010293Y-66833600D01*
X164609800Y-67234093D01*
X164376110Y-67798270D01*
X164376110Y-68408930D01*
X164609800Y-68973107D01*
X165010293Y-69373600D01*
X164609800Y-69774093D01*
X164376110Y-70338270D01*
X164376110Y-70948930D01*
X164609800Y-71513107D01*
X165010293Y-71913600D01*
X164609800Y-72314093D01*
X164376110Y-72878270D01*
X164376110Y-73488930D01*
X164609800Y-74053107D01*
X165010293Y-74453600D01*
X164609800Y-74854093D01*
X164376110Y-75418270D01*
X164376110Y-76028930D01*
X164609800Y-76593107D01*
X165010293Y-76993600D01*
X164609800Y-77394093D01*
X164472791Y-77724863D01*
X164157830Y-77409902D01*
X163575276Y-77168600D01*
X162944724Y-77168600D01*
X162362170Y-77409902D01*
X161916302Y-77855770D01*
X161675000Y-78438324D01*
X161675000Y-79068876D01*
X161916302Y-79651430D01*
X162362170Y-80097298D01*
X162944724Y-80338600D01*
X163575276Y-80338600D01*
X164157830Y-80097298D01*
X164603698Y-79651430D01*
X164757299Y-79280606D01*
X165010293Y-79533600D01*
X164609800Y-79934093D01*
X164376110Y-80498270D01*
X164376110Y-81108930D01*
X164609800Y-81673107D01*
X165010293Y-82073600D01*
X164609800Y-82474093D01*
X164376110Y-83038270D01*
X164376110Y-83648930D01*
X164609800Y-84213107D01*
X165010293Y-84613600D01*
X164609800Y-85014093D01*
X164376110Y-85578270D01*
X164376110Y-86188930D01*
X164609800Y-86753107D01*
X165010293Y-87153600D01*
X164609800Y-87554093D01*
X164376110Y-88118270D01*
X164376110Y-88728930D01*
X164609800Y-89293107D01*
X165010293Y-89693600D01*
X164609800Y-90094093D01*
X164376110Y-90658270D01*
X164376110Y-91268930D01*
X164609800Y-91833107D01*
X165010293Y-92233600D01*
X164609800Y-92634093D01*
X164376110Y-93198270D01*
X164376110Y-93808930D01*
X164609800Y-94373107D01*
X165041603Y-94804910D01*
X165605780Y-95038600D01*
X166216440Y-95038600D01*
X166780617Y-94804910D01*
X167212420Y-94373107D01*
X167446110Y-93808930D01*
X167446110Y-93198270D01*
X167212420Y-92634093D01*
X166811927Y-92233600D01*
X167212420Y-91833107D01*
X167446110Y-91268930D01*
X167446110Y-90658270D01*
X167212420Y-90094093D01*
X166811927Y-89693600D01*
X167212420Y-89293107D01*
X167446110Y-88728930D01*
X167446110Y-88118270D01*
X167212420Y-87554093D01*
X166811927Y-87153600D01*
X167212420Y-86753107D01*
X167446110Y-86188930D01*
X167446110Y-85578270D01*
X167212420Y-85014093D01*
X166811927Y-84613600D01*
X167212420Y-84213107D01*
X167446110Y-83648930D01*
X167446110Y-83038270D01*
X167212420Y-82474093D01*
X166811927Y-82073600D01*
X167212420Y-81673107D01*
X167446110Y-81108930D01*
X167446110Y-80498270D01*
X167212420Y-79934093D01*
X166811927Y-79533600D01*
X167212420Y-79133107D01*
X167446110Y-78568930D01*
X167446110Y-77958270D01*
X167212420Y-77394093D01*
X166811927Y-76993600D01*
X167212420Y-76593107D01*
X167446110Y-76028930D01*
X167446110Y-75418270D01*
X167212420Y-74854093D01*
X166811927Y-74453600D01*
X167212420Y-74053107D01*
X167446110Y-73488930D01*
X167446110Y-72878270D01*
X167212420Y-72314093D01*
X166811927Y-71913600D01*
X167212420Y-71513107D01*
X167446110Y-70948930D01*
X167446110Y-70338270D01*
X167212420Y-69774093D01*
X166811927Y-69373600D01*
X167212420Y-68973107D01*
X167446110Y-68408930D01*
X167446110Y-67798270D01*
X167212420Y-67234093D01*
X166811927Y-66833600D01*
X167212420Y-66433107D01*
X167446110Y-65868930D01*
X167446110Y-65258270D01*
X167212420Y-64694093D01*
X166811927Y-64293600D01*
X167212420Y-63893107D01*
X167446110Y-63328930D01*
X167446110Y-62718270D01*
X167212420Y-62154093D01*
X166811927Y-61753600D01*
X167212420Y-61353107D01*
X167446110Y-60788930D01*
X167446110Y-60178270D01*
X167212420Y-59614093D01*
X166811927Y-59213600D01*
X167212420Y-58813107D01*
X167446110Y-58248930D01*
X167446110Y-57638270D01*
X167212420Y-57074093D01*
X166811927Y-56673600D01*
X167212420Y-56273107D01*
X167446110Y-55708930D01*
X167446110Y-55098270D01*
X167212420Y-54534093D01*
X166780617Y-54102290D01*
X166216440Y-53868600D01*
X165605780Y-53868600D01*
X165041603Y-54102290D01*
X164609800Y-54534093D01*
X164376110Y-55098270D01*
X164376110Y-55708930D01*
X164609800Y-56273107D01*
X165010293Y-56673600D01*
X164609800Y-57074093D01*
X164376110Y-57638270D01*
X164376110Y-58248930D01*
X164609800Y-58813107D01*
X165010293Y-59213600D01*
X164609800Y-59614093D01*
X164390780Y-60142852D01*
X164157830Y-59909902D01*
X163575276Y-59668600D01*
X162944724Y-59668600D01*
X162362170Y-59909902D01*
X161916302Y-60355770D01*
X161675000Y-60938324D01*
X160095000Y-60938324D01*
X160095000Y-60789140D01*
X159739517Y-59930929D01*
X159082671Y-59274083D01*
X158224460Y-58918600D01*
X157295540Y-58918600D01*
X156437329Y-59274083D01*
X155780483Y-59930929D01*
X155515000Y-60571861D01*
X155515000Y-49600912D01*
X155530378Y-49523600D01*
X155515000Y-49446288D01*
X155515000Y-49446284D01*
X155490915Y-49325196D01*
X156109000Y-49325196D01*
X156109000Y-49982004D01*
X156360350Y-50588816D01*
X156824784Y-51053250D01*
X157431596Y-51304600D01*
X158088404Y-51304600D01*
X158695216Y-51053250D01*
X159159650Y-50588816D01*
X159411000Y-49982004D01*
X159411000Y-49325196D01*
X159159650Y-48718384D01*
X158695216Y-48253950D01*
X158088404Y-48002600D01*
X157431596Y-48002600D01*
X156824784Y-48253950D01*
X156360350Y-48718384D01*
X156109000Y-49325196D01*
X155490915Y-49325196D01*
X155469454Y-49217308D01*
X155295953Y-48957647D01*
X155230408Y-48913851D01*
X154348778Y-48032221D01*
X154411000Y-47882004D01*
X154411000Y-47225196D01*
X154159650Y-46618384D01*
X153695216Y-46153950D01*
X153088404Y-45902600D01*
X152431596Y-45902600D01*
X151824784Y-46153950D01*
X151360350Y-46618384D01*
X151109000Y-47225196D01*
X151109000Y-47882004D01*
X151360350Y-48488816D01*
X151824784Y-48953250D01*
X152431596Y-49204600D01*
X153088404Y-49204600D01*
X153238621Y-49142378D01*
X153945001Y-49848758D01*
X153945000Y-62758442D01*
X153238621Y-63464822D01*
X153088404Y-63402600D01*
X152431596Y-63402600D01*
X151824784Y-63653950D01*
X151360350Y-64118384D01*
X151109000Y-64725196D01*
X151109000Y-64775000D01*
X147124002Y-64775000D01*
X147065654Y-64634136D01*
X146605864Y-64174346D01*
X146005120Y-63925510D01*
X145354880Y-63925510D01*
X144754136Y-64174346D01*
X144294346Y-64634136D01*
X144293794Y-64635467D01*
X143951927Y-64293600D01*
X144352420Y-63893107D01*
X144586110Y-63328930D01*
X144586110Y-62718270D01*
X144352420Y-62154093D01*
X143951927Y-61753600D01*
X144352420Y-61353107D01*
X144524228Y-60938324D01*
X150675000Y-60938324D01*
X150675000Y-61568876D01*
X150916302Y-62151430D01*
X151362170Y-62597298D01*
X151944724Y-62838600D01*
X152575276Y-62838600D01*
X153157830Y-62597298D01*
X153603698Y-62151430D01*
X153845000Y-61568876D01*
X153845000Y-60938324D01*
X153603698Y-60355770D01*
X153157830Y-59909902D01*
X152575276Y-59668600D01*
X151944724Y-59668600D01*
X151362170Y-59909902D01*
X150916302Y-60355770D01*
X150675000Y-60938324D01*
X144524228Y-60938324D01*
X144586110Y-60788930D01*
X144586110Y-60178270D01*
X144352420Y-59614093D01*
X143951927Y-59213600D01*
X144352420Y-58813107D01*
X144586110Y-58248930D01*
X144586110Y-57638270D01*
X144352420Y-57074093D01*
X143920617Y-56642290D01*
X143900995Y-56634162D01*
X143928619Y-56552163D01*
X144707443Y-56552163D01*
X144806042Y-56818965D01*
X145415582Y-57045401D01*
X146065377Y-57021341D01*
X146553958Y-56818965D01*
X146652557Y-56552163D01*
X145680000Y-55579605D01*
X144707443Y-56552163D01*
X143928619Y-56552163D01*
X143951664Y-56483759D01*
X143051110Y-55583205D01*
X143036968Y-55597348D01*
X142857363Y-55417743D01*
X142871505Y-55403600D01*
X143230715Y-55403600D01*
X144131269Y-56304154D01*
X144256120Y-56262093D01*
X144261035Y-56273958D01*
X144527837Y-56372557D01*
X145500395Y-55400000D01*
X145859605Y-55400000D01*
X146832163Y-56372557D01*
X147098965Y-56273958D01*
X147325401Y-55664418D01*
X147301341Y-55014623D01*
X147098965Y-54526042D01*
X146832163Y-54427443D01*
X145859605Y-55400000D01*
X145500395Y-55400000D01*
X144527837Y-54427443D01*
X144261035Y-54526042D01*
X144254194Y-54544458D01*
X144131269Y-54503046D01*
X143230715Y-55403600D01*
X142871505Y-55403600D01*
X141970951Y-54503046D01*
X141714467Y-54589452D01*
X141504652Y-55162936D01*
X141521686Y-55568600D01*
X132386100Y-55568600D01*
X132386100Y-54323441D01*
X142150556Y-54323441D01*
X143051110Y-55223995D01*
X143951664Y-54323441D01*
X143926195Y-54247837D01*
X144707443Y-54247837D01*
X145680000Y-55220395D01*
X146652557Y-54247837D01*
X146553958Y-53981035D01*
X145944418Y-53754599D01*
X145294623Y-53778659D01*
X144806042Y-53981035D01*
X144707443Y-54247837D01*
X143926195Y-54247837D01*
X143865258Y-54066957D01*
X143291774Y-53857142D01*
X142681650Y-53882761D01*
X142236962Y-54066957D01*
X142150556Y-54323441D01*
X132386100Y-54323441D01*
X132386100Y-51309031D01*
X133966100Y-51309031D01*
X133966100Y-52198169D01*
X134306359Y-53019626D01*
X134935074Y-53648341D01*
X135756531Y-53988600D01*
X136645669Y-53988600D01*
X137467126Y-53648341D01*
X138095841Y-53019626D01*
X138436100Y-52198169D01*
X138436100Y-51309031D01*
X138095841Y-50487574D01*
X137467126Y-49858859D01*
X136645669Y-49518600D01*
X135756531Y-49518600D01*
X134935074Y-49858859D01*
X134306359Y-50487574D01*
X133966100Y-51309031D01*
X132386100Y-51309031D01*
X132386100Y-46628339D01*
X132743847Y-46986086D01*
X133344778Y-47235000D01*
X133995222Y-47235000D01*
X134596153Y-46986086D01*
X135056086Y-46526153D01*
X135305000Y-45925222D01*
X135305000Y-45306164D01*
X135374615Y-45335000D01*
X135965385Y-45335000D01*
X136511185Y-45108922D01*
X136928922Y-44691185D01*
X137155000Y-44145385D01*
X137155000Y-43554615D01*
X138185000Y-43554615D01*
X138185000Y-44145385D01*
X138411078Y-44691185D01*
X138828815Y-45108922D01*
X139374615Y-45335000D01*
X139965385Y-45335000D01*
X140511185Y-45108922D01*
X140928922Y-44691185D01*
X141155000Y-44145385D01*
X141155000Y-43554615D01*
X142185000Y-43554615D01*
X142185000Y-44145385D01*
X142411078Y-44691185D01*
X142828815Y-45108922D01*
X143374615Y-45335000D01*
X143965385Y-45335000D01*
X144035000Y-45306164D01*
X144035000Y-45925222D01*
X144283914Y-46526153D01*
X144743847Y-46986086D01*
X145344778Y-47235000D01*
X145995222Y-47235000D01*
X146596153Y-46986086D01*
X147056086Y-46526153D01*
X147305000Y-45925222D01*
X147305000Y-45274778D01*
X147056086Y-44673847D01*
X146596153Y-44213914D01*
X145995222Y-43965000D01*
X145344778Y-43965000D01*
X145155000Y-44043609D01*
X145155000Y-43554615D01*
X145106831Y-43438324D01*
X150675000Y-43438324D01*
X150675000Y-44068876D01*
X150916302Y-44651430D01*
X151362170Y-45097298D01*
X151944724Y-45338600D01*
X152575276Y-45338600D01*
X153157830Y-45097298D01*
X153603698Y-44651430D01*
X153845000Y-44068876D01*
X153845000Y-43438324D01*
X153783206Y-43289140D01*
X155425000Y-43289140D01*
X155425000Y-44218060D01*
X155780483Y-45076271D01*
X156437329Y-45733117D01*
X157295540Y-46088600D01*
X158224460Y-46088600D01*
X159082671Y-45733117D01*
X159739517Y-45076271D01*
X160095000Y-44218060D01*
X160095000Y-43438324D01*
X161675000Y-43438324D01*
X161675000Y-44068876D01*
X161916302Y-44651430D01*
X162362170Y-45097298D01*
X162944724Y-45338600D01*
X163575276Y-45338600D01*
X164157830Y-45097298D01*
X164603698Y-44651430D01*
X164845000Y-44068876D01*
X164845000Y-43438324D01*
X169175000Y-43438324D01*
X169175000Y-44068876D01*
X169416302Y-44651430D01*
X169862170Y-45097298D01*
X170444724Y-45338600D01*
X171075276Y-45338600D01*
X171657830Y-45097298D01*
X172103698Y-44651430D01*
X172345000Y-44068876D01*
X172345000Y-43438324D01*
X172283206Y-43289140D01*
X173925000Y-43289140D01*
X173925000Y-44218060D01*
X174280483Y-45076271D01*
X174937329Y-45733117D01*
X175795540Y-46088600D01*
X176724460Y-46088600D01*
X177582671Y-45733117D01*
X178239517Y-45076271D01*
X178595000Y-44218060D01*
X178595000Y-43438324D01*
X180175000Y-43438324D01*
X180175000Y-44068876D01*
X180416302Y-44651430D01*
X180862170Y-45097298D01*
X181444724Y-45338600D01*
X182075276Y-45338600D01*
X182657830Y-45097298D01*
X183103698Y-44651430D01*
X183345000Y-44068876D01*
X183345000Y-43438324D01*
X183103698Y-42855770D01*
X182657830Y-42409902D01*
X182075276Y-42168600D01*
X181444724Y-42168600D01*
X180862170Y-42409902D01*
X180416302Y-42855770D01*
X180175000Y-43438324D01*
X178595000Y-43438324D01*
X178595000Y-43289140D01*
X178239517Y-42430929D01*
X177582671Y-41774083D01*
X176724460Y-41418600D01*
X175795540Y-41418600D01*
X174937329Y-41774083D01*
X174280483Y-42430929D01*
X173925000Y-43289140D01*
X172283206Y-43289140D01*
X172103698Y-42855770D01*
X171657830Y-42409902D01*
X171075276Y-42168600D01*
X170444724Y-42168600D01*
X169862170Y-42409902D01*
X169416302Y-42855770D01*
X169175000Y-43438324D01*
X164845000Y-43438324D01*
X164603698Y-42855770D01*
X164157830Y-42409902D01*
X163575276Y-42168600D01*
X162944724Y-42168600D01*
X162362170Y-42409902D01*
X161916302Y-42855770D01*
X161675000Y-43438324D01*
X160095000Y-43438324D01*
X160095000Y-43289140D01*
X159739517Y-42430929D01*
X159082671Y-41774083D01*
X158224460Y-41418600D01*
X157295540Y-41418600D01*
X156437329Y-41774083D01*
X155780483Y-42430929D01*
X155425000Y-43289140D01*
X153783206Y-43289140D01*
X153603698Y-42855770D01*
X153157830Y-42409902D01*
X152575276Y-42168600D01*
X151944724Y-42168600D01*
X151362170Y-42409902D01*
X150916302Y-42855770D01*
X150675000Y-43438324D01*
X145106831Y-43438324D01*
X144928922Y-43008815D01*
X144511185Y-42591078D01*
X143965385Y-42365000D01*
X143374615Y-42365000D01*
X142828815Y-42591078D01*
X142411078Y-43008815D01*
X142185000Y-43554615D01*
X141155000Y-43554615D01*
X140928922Y-43008815D01*
X140511185Y-42591078D01*
X139965385Y-42365000D01*
X139374615Y-42365000D01*
X138828815Y-42591078D01*
X138411078Y-43008815D01*
X138185000Y-43554615D01*
X137155000Y-43554615D01*
X136928922Y-43008815D01*
X136511185Y-42591078D01*
X135965385Y-42365000D01*
X135374615Y-42365000D01*
X134828815Y-42591078D01*
X134411078Y-43008815D01*
X134185000Y-43554615D01*
X134185000Y-44043609D01*
X133995222Y-43965000D01*
X133344778Y-43965000D01*
X132743847Y-44213914D01*
X132386100Y-44571661D01*
X132386100Y-40628339D01*
X132743847Y-40986086D01*
X133344778Y-41235000D01*
X133995222Y-41235000D01*
X134596153Y-40986086D01*
X135056086Y-40526153D01*
X135305000Y-39925222D01*
X135305000Y-39274778D01*
X144035000Y-39274778D01*
X144035000Y-39925222D01*
X144283914Y-40526153D01*
X144743847Y-40986086D01*
X145344778Y-41235000D01*
X145995222Y-41235000D01*
X146596153Y-40986086D01*
X147056086Y-40526153D01*
X147305000Y-39925222D01*
X147305000Y-39274778D01*
X147215635Y-39059031D01*
X187766100Y-39059031D01*
X187766100Y-39948169D01*
X188106359Y-40769626D01*
X188735074Y-41398341D01*
X189556531Y-41738600D01*
X190445669Y-41738600D01*
X191267126Y-41398341D01*
X191895841Y-40769626D01*
X192236100Y-39948169D01*
X192236100Y-39059031D01*
X191895841Y-38237574D01*
X191267126Y-37608859D01*
X190445669Y-37268600D01*
X189556531Y-37268600D01*
X188735074Y-37608859D01*
X188106359Y-38237574D01*
X187766100Y-39059031D01*
X147215635Y-39059031D01*
X147056086Y-38673847D01*
X146596153Y-38213914D01*
X145995222Y-37965000D01*
X145344778Y-37965000D01*
X144743847Y-38213914D01*
X144283914Y-38673847D01*
X144035000Y-39274778D01*
X135305000Y-39274778D01*
X135056086Y-38673847D01*
X134596153Y-38213914D01*
X133995222Y-37965000D01*
X133344778Y-37965000D01*
X132743847Y-38213914D01*
X132386100Y-38571661D01*
X132386100Y-35688600D01*
X193816101Y-35688600D01*
X193816100Y-43318600D01*
X193816100Y-43318600D01*
G37*
X193816100Y-43318600D02*
X192468562Y-43318600D01*
X192401100Y-43305181D01*
X192333639Y-43318600D01*
X192333638Y-43318600D01*
X192133827Y-43358345D01*
X191907243Y-43509743D01*
X191755845Y-43736327D01*
X191702681Y-44003600D01*
X191716101Y-44071067D01*
X191716100Y-62418600D01*
X187568562Y-62418600D01*
X187501100Y-62405181D01*
X187433639Y-62418600D01*
X187433638Y-62418600D01*
X187233827Y-62458345D01*
X187007243Y-62609743D01*
X186855845Y-62836327D01*
X186802681Y-63103600D01*
X186816101Y-63171067D01*
X186816100Y-104318600D01*
X132466100Y-104318600D01*
X132466100Y-101059031D01*
X134046100Y-101059031D01*
X134046100Y-101948169D01*
X134386359Y-102769626D01*
X135015074Y-103398341D01*
X135836531Y-103738600D01*
X136725669Y-103738600D01*
X137547126Y-103398341D01*
X138175841Y-102769626D01*
X138516100Y-101948169D01*
X138516100Y-101059031D01*
X138175841Y-100237574D01*
X137547126Y-99608859D01*
X136725669Y-99268600D01*
X135836531Y-99268600D01*
X135015074Y-99608859D01*
X134386359Y-100237574D01*
X134046100Y-101059031D01*
X132466100Y-101059031D01*
X132466100Y-97688600D01*
X141713649Y-97688600D01*
X141781110Y-97702019D01*
X142048383Y-97648855D01*
X142274967Y-97497457D01*
X142426365Y-97270873D01*
X142466110Y-97071062D01*
X142479529Y-97003600D01*
X142466110Y-96936138D01*
X142466110Y-95938324D01*
X150675000Y-95938324D01*
X150675000Y-96568876D01*
X150916302Y-97151430D01*
X151362170Y-97597298D01*
X151944724Y-97838600D01*
X152575276Y-97838600D01*
X153157830Y-97597298D01*
X153603698Y-97151430D01*
X153845000Y-96568876D01*
X153845000Y-95938324D01*
X153603698Y-95355770D01*
X153157830Y-94909902D01*
X152575276Y-94668600D01*
X151944724Y-94668600D01*
X151362170Y-94909902D01*
X150916302Y-95355770D01*
X150675000Y-95938324D01*
X142466110Y-95938324D01*
X142466110Y-94924079D01*
X142810446Y-95050058D01*
X143420570Y-95024439D01*
X143865258Y-94840243D01*
X143951664Y-94583759D01*
X143051110Y-93683205D01*
X143036968Y-93697348D01*
X142857363Y-93517743D01*
X142871505Y-93503600D01*
X143230715Y-93503600D01*
X144131269Y-94404154D01*
X144387753Y-94317748D01*
X144597568Y-93744264D01*
X144571949Y-93134140D01*
X144387753Y-92689452D01*
X144131269Y-92603046D01*
X143230715Y-93503600D01*
X142871505Y-93503600D01*
X142857363Y-93489458D01*
X143036968Y-93309853D01*
X143051110Y-93323995D01*
X143951664Y-92423441D01*
X143900995Y-92273038D01*
X143920617Y-92264910D01*
X144352420Y-91833107D01*
X144586110Y-91268930D01*
X144586110Y-90658270D01*
X144352420Y-90094093D01*
X143951927Y-89693600D01*
X144352420Y-89293107D01*
X144586110Y-88728930D01*
X144586110Y-88118270D01*
X144352420Y-87554093D01*
X143951927Y-87153600D01*
X144352420Y-86753107D01*
X144586110Y-86188930D01*
X144586110Y-85578270D01*
X144352420Y-85014093D01*
X143951927Y-84613600D01*
X144352420Y-84213107D01*
X144586110Y-83648930D01*
X144586110Y-83038270D01*
X144352420Y-82474093D01*
X143951927Y-82073600D01*
X144352420Y-81673107D01*
X144586110Y-81108930D01*
X144586110Y-80498270D01*
X144352420Y-79934093D01*
X143951927Y-79533600D01*
X144352420Y-79133107D01*
X144586110Y-78568930D01*
X144586110Y-78438324D01*
X150675000Y-78438324D01*
X150675000Y-79068876D01*
X150916302Y-79651430D01*
X151362170Y-80097298D01*
X151944724Y-80338600D01*
X152575276Y-80338600D01*
X153157830Y-80097298D01*
X153603698Y-79651430D01*
X153845000Y-79068876D01*
X153845000Y-78438324D01*
X153603698Y-77855770D01*
X153157830Y-77409902D01*
X152575276Y-77168600D01*
X151944724Y-77168600D01*
X151362170Y-77409902D01*
X150916302Y-77855770D01*
X150675000Y-78438324D01*
X144586110Y-78438324D01*
X144586110Y-77958270D01*
X144352420Y-77394093D01*
X143951927Y-76993600D01*
X144352420Y-76593107D01*
X144586110Y-76028930D01*
X144586110Y-75418270D01*
X144352420Y-74854093D01*
X143951927Y-74453600D01*
X144352420Y-74053107D01*
X144586110Y-73488930D01*
X144586110Y-72878270D01*
X144352420Y-72314093D01*
X143951927Y-71913600D01*
X144352420Y-71513107D01*
X144586110Y-70948930D01*
X144586110Y-70338270D01*
X144352420Y-69774093D01*
X143951927Y-69373600D01*
X144352420Y-68973107D01*
X144586110Y-68408930D01*
X144586110Y-67798270D01*
X144352420Y-67234093D01*
X143951927Y-66833600D01*
X144297005Y-66488523D01*
X144754136Y-66945654D01*
X145354880Y-67194490D01*
X146005120Y-67194490D01*
X146605864Y-66945654D01*
X147065654Y-66485864D01*
X147124002Y-66345000D01*
X151716534Y-66345000D01*
X151824784Y-66453250D01*
X151975000Y-66515472D01*
X151975001Y-75402683D01*
X151959622Y-75480000D01*
X152020546Y-75786291D01*
X152150251Y-75980408D01*
X152150254Y-75980411D01*
X152194048Y-76045953D01*
X152259590Y-76089747D01*
X154175000Y-78005158D01*
X154175001Y-80028441D01*
X153238621Y-80964822D01*
X153088404Y-80902600D01*
X152431596Y-80902600D01*
X151824784Y-81153950D01*
X151360350Y-81618384D01*
X151109000Y-82225196D01*
X151109000Y-82882004D01*
X151360350Y-83488816D01*
X151824784Y-83953250D01*
X151975000Y-84015472D01*
X151975001Y-92272683D01*
X151959622Y-92350000D01*
X152020546Y-92656291D01*
X152150251Y-92850408D01*
X152150254Y-92850411D01*
X152194048Y-92915953D01*
X152259590Y-92959747D01*
X154055000Y-94755158D01*
X154055001Y-97648441D01*
X153238621Y-98464822D01*
X153088404Y-98402600D01*
X152431596Y-98402600D01*
X151824784Y-98653950D01*
X151360350Y-99118384D01*
X151109000Y-99725196D01*
X151109000Y-100382004D01*
X151360350Y-100988816D01*
X151824784Y-101453250D01*
X152431596Y-101704600D01*
X153088404Y-101704600D01*
X153695216Y-101453250D01*
X154159650Y-100988816D01*
X154221872Y-100838600D01*
X156740134Y-100838600D01*
X156360350Y-101218384D01*
X156109000Y-101825196D01*
X156109000Y-102482004D01*
X156360350Y-103088816D01*
X156824784Y-103553250D01*
X157431596Y-103804600D01*
X158088404Y-103804600D01*
X158695216Y-103553250D01*
X159159650Y-103088816D01*
X159411000Y-102482004D01*
X159411000Y-101825196D01*
X174609000Y-101825196D01*
X174609000Y-102482004D01*
X174860350Y-103088816D01*
X175324784Y-103553250D01*
X175931596Y-103804600D01*
X176588404Y-103804600D01*
X177195216Y-103553250D01*
X177659650Y-103088816D01*
X177911000Y-102482004D01*
X177911000Y-101825196D01*
X177659650Y-101218384D01*
X177195216Y-100753950D01*
X176588404Y-100502600D01*
X175931596Y-100502600D01*
X175324784Y-100753950D01*
X174860350Y-101218384D01*
X174609000Y-101825196D01*
X159411000Y-101825196D01*
X159159650Y-101218384D01*
X158779866Y-100838600D01*
X169798128Y-100838600D01*
X169860350Y-100988816D01*
X170324784Y-101453250D01*
X170931596Y-101704600D01*
X171588404Y-101704600D01*
X172195216Y-101453250D01*
X172659650Y-100988816D01*
X172911000Y-100382004D01*
X172911000Y-99725196D01*
X172659650Y-99118384D01*
X172445712Y-98904446D01*
X174060411Y-97289747D01*
X174125953Y-97245953D01*
X174136884Y-97229593D01*
X174280483Y-97576271D01*
X174937329Y-98233117D01*
X175795540Y-98588600D01*
X176724460Y-98588600D01*
X177582671Y-98233117D01*
X178239517Y-97576271D01*
X178595000Y-96718060D01*
X178595000Y-95938324D01*
X180175000Y-95938324D01*
X180175000Y-96568876D01*
X180416302Y-97151430D01*
X180862170Y-97597298D01*
X181444724Y-97838600D01*
X182075276Y-97838600D01*
X182657830Y-97597298D01*
X183103698Y-97151430D01*
X183345000Y-96568876D01*
X183345000Y-95938324D01*
X183103698Y-95355770D01*
X182657830Y-94909902D01*
X182075276Y-94668600D01*
X181444724Y-94668600D01*
X180862170Y-94909902D01*
X180416302Y-95355770D01*
X180175000Y-95938324D01*
X178595000Y-95938324D01*
X178595000Y-95789140D01*
X178239517Y-94930929D01*
X177582671Y-94274083D01*
X176724460Y-93918600D01*
X175795540Y-93918600D01*
X174937329Y-94274083D01*
X174345000Y-94866412D01*
X174345000Y-84930910D01*
X174360378Y-84853599D01*
X174345000Y-84776288D01*
X174345000Y-84776284D01*
X174299454Y-84547308D01*
X174219885Y-84428225D01*
X174169749Y-84353191D01*
X174169747Y-84353189D01*
X174151043Y-84325196D01*
X174609000Y-84325196D01*
X174609000Y-84982004D01*
X174860350Y-85588816D01*
X175324784Y-86053250D01*
X175931596Y-86304600D01*
X176588404Y-86304600D01*
X177195216Y-86053250D01*
X177659650Y-85588816D01*
X177911000Y-84982004D01*
X177911000Y-84325196D01*
X177659650Y-83718384D01*
X177195216Y-83253950D01*
X176588404Y-83002600D01*
X175931596Y-83002600D01*
X175324784Y-83253950D01*
X174860350Y-83718384D01*
X174609000Y-84325196D01*
X174151043Y-84325196D01*
X174125953Y-84287647D01*
X174060411Y-84243853D01*
X172848778Y-83032221D01*
X172911000Y-82882004D01*
X172911000Y-82225196D01*
X172659650Y-81618384D01*
X172475712Y-81434446D01*
X173450411Y-80459747D01*
X173515953Y-80415953D01*
X173559747Y-80350411D01*
X173559749Y-80350409D01*
X173689454Y-80156292D01*
X173689454Y-80156291D01*
X173735000Y-79927316D01*
X173735000Y-79927312D01*
X173750378Y-79850000D01*
X173735000Y-79772688D01*
X173735000Y-78289140D01*
X173925000Y-78289140D01*
X173925000Y-79218060D01*
X174280483Y-80076271D01*
X174937329Y-80733117D01*
X175795540Y-81088600D01*
X176724460Y-81088600D01*
X177582671Y-80733117D01*
X178239517Y-80076271D01*
X178595000Y-79218060D01*
X178595000Y-78438324D01*
X180175000Y-78438324D01*
X180175000Y-79068876D01*
X180416302Y-79651430D01*
X180862170Y-80097298D01*
X181444724Y-80338600D01*
X182075276Y-80338600D01*
X182657830Y-80097298D01*
X183103698Y-79651430D01*
X183345000Y-79068876D01*
X183345000Y-78438324D01*
X183103698Y-77855770D01*
X182657830Y-77409902D01*
X182075276Y-77168600D01*
X181444724Y-77168600D01*
X180862170Y-77409902D01*
X180416302Y-77855770D01*
X180175000Y-78438324D01*
X178595000Y-78438324D01*
X178595000Y-78289140D01*
X178239517Y-77430929D01*
X177582671Y-76774083D01*
X176724460Y-76418600D01*
X175795540Y-76418600D01*
X174937329Y-76774083D01*
X174280483Y-77430929D01*
X173925000Y-78289140D01*
X173735000Y-78289140D01*
X173735000Y-66825196D01*
X174609000Y-66825196D01*
X174609000Y-67482004D01*
X174860350Y-68088816D01*
X175324784Y-68553250D01*
X175931596Y-68804600D01*
X176588404Y-68804600D01*
X177195216Y-68553250D01*
X177659650Y-68088816D01*
X177911000Y-67482004D01*
X177911000Y-66825196D01*
X177659650Y-66218384D01*
X177195216Y-65753950D01*
X176588404Y-65502600D01*
X175931596Y-65502600D01*
X175324784Y-65753950D01*
X174860350Y-66218384D01*
X174609000Y-66825196D01*
X173735000Y-66825196D01*
X173735000Y-66820912D01*
X173750378Y-66743600D01*
X173735000Y-66666288D01*
X173735000Y-66666284D01*
X173689454Y-66437308D01*
X173638051Y-66360378D01*
X173559749Y-66243191D01*
X173559747Y-66243189D01*
X173515953Y-66177647D01*
X173450411Y-66133853D01*
X172848778Y-65532221D01*
X172911000Y-65382004D01*
X172911000Y-64725196D01*
X172659650Y-64118384D01*
X172455712Y-63914446D01*
X173730408Y-62639749D01*
X173795953Y-62595953D01*
X173969454Y-62336292D01*
X174015000Y-62107316D01*
X174015000Y-62107312D01*
X174030378Y-62030000D01*
X174015000Y-61952688D01*
X174015000Y-61935339D01*
X174280483Y-62576271D01*
X174937329Y-63233117D01*
X175795540Y-63588600D01*
X176724460Y-63588600D01*
X177582671Y-63233117D01*
X178239517Y-62576271D01*
X178595000Y-61718060D01*
X178595000Y-60938324D01*
X180175000Y-60938324D01*
X180175000Y-61568876D01*
X180416302Y-62151430D01*
X180862170Y-62597298D01*
X181444724Y-62838600D01*
X182075276Y-62838600D01*
X182657830Y-62597298D01*
X183103698Y-62151430D01*
X183345000Y-61568876D01*
X183345000Y-60938324D01*
X183103698Y-60355770D01*
X182657830Y-59909902D01*
X182075276Y-59668600D01*
X181444724Y-59668600D01*
X180862170Y-59909902D01*
X180416302Y-60355770D01*
X180175000Y-60938324D01*
X178595000Y-60938324D01*
X178595000Y-60789140D01*
X178239517Y-59930929D01*
X177582671Y-59274083D01*
X176724460Y-58918600D01*
X175795540Y-58918600D01*
X174937329Y-59274083D01*
X174280483Y-59930929D01*
X174015000Y-60571861D01*
X174015000Y-56212696D01*
X186604744Y-56212696D01*
X186727353Y-56683701D01*
X187020875Y-57071933D01*
X187440624Y-57318286D01*
X187532391Y-57333462D01*
X187723000Y-57208731D01*
X187723000Y-56017000D01*
X186767453Y-56017000D01*
X186604744Y-56212696D01*
X174015000Y-56212696D01*
X174015000Y-55567304D01*
X186604744Y-55567304D01*
X186767453Y-55763000D01*
X187723000Y-55763000D01*
X187723000Y-54571269D01*
X187977000Y-54571269D01*
X187977000Y-55763000D01*
X187997000Y-55763000D01*
X187997000Y-56017000D01*
X187977000Y-56017000D01*
X187977000Y-57208731D01*
X188167609Y-57333462D01*
X188259376Y-57318286D01*
X188679125Y-57071933D01*
X188694497Y-57051601D01*
X188792191Y-57197809D01*
X189002235Y-57338157D01*
X189250000Y-57387440D01*
X190450000Y-57387440D01*
X190697765Y-57338157D01*
X190907809Y-57197809D01*
X191048157Y-56987765D01*
X191097440Y-56740000D01*
X191097440Y-55040000D01*
X191048157Y-54792235D01*
X190907809Y-54582191D01*
X190697765Y-54441843D01*
X190450000Y-54392560D01*
X189250000Y-54392560D01*
X189002235Y-54441843D01*
X188792191Y-54582191D01*
X188694497Y-54728399D01*
X188679125Y-54708067D01*
X188259376Y-54461714D01*
X188167609Y-54446538D01*
X187977000Y-54571269D01*
X187723000Y-54571269D01*
X187532391Y-54446538D01*
X187440624Y-54461714D01*
X187020875Y-54708067D01*
X186727353Y-55096299D01*
X186604744Y-55567304D01*
X174015000Y-55567304D01*
X174015000Y-49600912D01*
X174030378Y-49523600D01*
X174015000Y-49446288D01*
X174015000Y-49446284D01*
X173990915Y-49325196D01*
X174609000Y-49325196D01*
X174609000Y-49982004D01*
X174860350Y-50588816D01*
X175324784Y-51053250D01*
X175931596Y-51304600D01*
X176588404Y-51304600D01*
X177195216Y-51053250D01*
X177659650Y-50588816D01*
X177911000Y-49982004D01*
X177911000Y-49325196D01*
X177659650Y-48718384D01*
X177195216Y-48253950D01*
X176588404Y-48002600D01*
X175931596Y-48002600D01*
X175324784Y-48253950D01*
X174860350Y-48718384D01*
X174609000Y-49325196D01*
X173990915Y-49325196D01*
X173969454Y-49217308D01*
X173795953Y-48957647D01*
X173730408Y-48913851D01*
X172848778Y-48032221D01*
X172911000Y-47882004D01*
X172911000Y-47225196D01*
X172659650Y-46618384D01*
X172195216Y-46153950D01*
X171588404Y-45902600D01*
X170931596Y-45902600D01*
X170324784Y-46153950D01*
X169860350Y-46618384D01*
X169609000Y-47225196D01*
X169609000Y-47882004D01*
X169860350Y-48488816D01*
X170324784Y-48953250D01*
X170931596Y-49204600D01*
X171588404Y-49204600D01*
X171738621Y-49142378D01*
X172445001Y-49848758D01*
X172445000Y-61704843D01*
X172178146Y-61971697D01*
X172345000Y-61568876D01*
X172345000Y-60938324D01*
X172103698Y-60355770D01*
X171657830Y-59909902D01*
X171075276Y-59668600D01*
X170444724Y-59668600D01*
X169862170Y-59909902D01*
X169416302Y-60355770D01*
X169175000Y-60938324D01*
X169175000Y-61568876D01*
X169416302Y-62151430D01*
X169862170Y-62597298D01*
X170444724Y-62838600D01*
X171075276Y-62838600D01*
X171478097Y-62671746D01*
X170759590Y-63390253D01*
X170694048Y-63434047D01*
X170650254Y-63499589D01*
X170650251Y-63499592D01*
X170632194Y-63526617D01*
X170324784Y-63653950D01*
X169860350Y-64118384D01*
X169609000Y-64725196D01*
X169609000Y-65382004D01*
X169860350Y-65988816D01*
X170324784Y-66453250D01*
X170931596Y-66704600D01*
X171588404Y-66704600D01*
X171738621Y-66642378D01*
X172165001Y-67068759D01*
X172165000Y-78003766D01*
X172103698Y-77855770D01*
X171657830Y-77409902D01*
X171075276Y-77168600D01*
X170444724Y-77168600D01*
X169862170Y-77409902D01*
X169416302Y-77855770D01*
X169175000Y-78438324D01*
X169175000Y-79068876D01*
X169416302Y-79651430D01*
X169862170Y-80097298D01*
X170444724Y-80338600D01*
X171075276Y-80338600D01*
X171546381Y-80143462D01*
X170759590Y-80930253D01*
X170694048Y-80974047D01*
X170669150Y-81011309D01*
X170324784Y-81153950D01*
X169860350Y-81618384D01*
X169609000Y-82225196D01*
X169609000Y-82882004D01*
X169860350Y-83488816D01*
X170324784Y-83953250D01*
X170931596Y-84204600D01*
X171588404Y-84204600D01*
X171738621Y-84142378D01*
X172775001Y-85178759D01*
X172775000Y-96354842D01*
X172192288Y-96937554D01*
X172345000Y-96568876D01*
X172345000Y-95938324D01*
X172103698Y-95355770D01*
X171657830Y-94909902D01*
X171075276Y-94668600D01*
X170444724Y-94668600D01*
X169862170Y-94909902D01*
X169416302Y-95355770D01*
X169175000Y-95938324D01*
X169175000Y-96568876D01*
X169416302Y-97151430D01*
X169862170Y-97597298D01*
X170444724Y-97838600D01*
X171075276Y-97838600D01*
X171443954Y-97685888D01*
X170759590Y-98370253D01*
X170694048Y-98414047D01*
X170650254Y-98479589D01*
X170650251Y-98479592D01*
X170613716Y-98534270D01*
X170324784Y-98653950D01*
X169860350Y-99118384D01*
X169798128Y-99268600D01*
X154655158Y-99268600D01*
X155340411Y-98583347D01*
X155405953Y-98539553D01*
X155449747Y-98474011D01*
X155449749Y-98474009D01*
X155499885Y-98398975D01*
X155579454Y-98279892D01*
X155625000Y-98050916D01*
X155625000Y-98050912D01*
X155640378Y-97973601D01*
X155625000Y-97896290D01*
X155625000Y-97200902D01*
X155780483Y-97576271D01*
X156437329Y-98233117D01*
X157295540Y-98588600D01*
X158224460Y-98588600D01*
X159082671Y-98233117D01*
X159739517Y-97576271D01*
X160095000Y-96718060D01*
X160095000Y-95938324D01*
X161675000Y-95938324D01*
X161675000Y-96568876D01*
X161916302Y-97151430D01*
X162362170Y-97597298D01*
X162944724Y-97838600D01*
X163575276Y-97838600D01*
X164157830Y-97597298D01*
X164603698Y-97151430D01*
X164845000Y-96568876D01*
X164845000Y-95938324D01*
X164603698Y-95355770D01*
X164157830Y-94909902D01*
X163575276Y-94668600D01*
X162944724Y-94668600D01*
X162362170Y-94909902D01*
X161916302Y-95355770D01*
X161675000Y-95938324D01*
X160095000Y-95938324D01*
X160095000Y-95789140D01*
X159739517Y-94930929D01*
X159082671Y-94274083D01*
X158224460Y-93918600D01*
X157295540Y-93918600D01*
X156437329Y-94274083D01*
X155780483Y-94930929D01*
X155625000Y-95306298D01*
X155625000Y-94507310D01*
X155640378Y-94429999D01*
X155625000Y-94352688D01*
X155625000Y-94352684D01*
X155579454Y-94123708D01*
X155499885Y-94004625D01*
X155449749Y-93929591D01*
X155449747Y-93929589D01*
X155405953Y-93864047D01*
X155340411Y-93820253D01*
X153545000Y-92024843D01*
X153545000Y-84325196D01*
X156109000Y-84325196D01*
X156109000Y-84982004D01*
X156360350Y-85588816D01*
X156824784Y-86053250D01*
X157431596Y-86304600D01*
X158088404Y-86304600D01*
X158695216Y-86053250D01*
X159159650Y-85588816D01*
X159411000Y-84982004D01*
X159411000Y-84325196D01*
X159159650Y-83718384D01*
X158695216Y-83253950D01*
X158088404Y-83002600D01*
X157431596Y-83002600D01*
X156824784Y-83253950D01*
X156360350Y-83718384D01*
X156109000Y-84325196D01*
X153545000Y-84325196D01*
X153545000Y-84015472D01*
X153695216Y-83953250D01*
X154159650Y-83488816D01*
X154411000Y-82882004D01*
X154411000Y-82225196D01*
X154348778Y-82074979D01*
X155460411Y-80963347D01*
X155525953Y-80919553D01*
X155569747Y-80854011D01*
X155569749Y-80854009D01*
X155699454Y-80659892D01*
X155713465Y-80589454D01*
X155745000Y-80430916D01*
X155745000Y-80430912D01*
X155760378Y-80353600D01*
X155745000Y-80276288D01*
X155745000Y-79990608D01*
X155780483Y-80076271D01*
X156437329Y-80733117D01*
X157295540Y-81088600D01*
X158224460Y-81088600D01*
X159082671Y-80733117D01*
X159739517Y-80076271D01*
X160095000Y-79218060D01*
X160095000Y-78289140D01*
X159739517Y-77430929D01*
X159082671Y-76774083D01*
X158224460Y-76418600D01*
X157295540Y-76418600D01*
X156437329Y-76774083D01*
X155780483Y-77430929D01*
X155733431Y-77544522D01*
X155699454Y-77373708D01*
X155622541Y-77258600D01*
X155569749Y-77179591D01*
X155569747Y-77179589D01*
X155525953Y-77114047D01*
X155460411Y-77070253D01*
X153545000Y-75154843D01*
X153545000Y-66825196D01*
X156109000Y-66825196D01*
X156109000Y-67482004D01*
X156360350Y-68088816D01*
X156824784Y-68553250D01*
X157431596Y-68804600D01*
X158088404Y-68804600D01*
X158695216Y-68553250D01*
X159159650Y-68088816D01*
X159411000Y-67482004D01*
X159411000Y-66825196D01*
X159159650Y-66218384D01*
X158695216Y-65753950D01*
X158088404Y-65502600D01*
X157431596Y-65502600D01*
X156824784Y-65753950D01*
X156360350Y-66218384D01*
X156109000Y-66825196D01*
X153545000Y-66825196D01*
X153545000Y-66515472D01*
X153695216Y-66453250D01*
X154159650Y-65988816D01*
X154411000Y-65382004D01*
X154411000Y-64725196D01*
X154348778Y-64574979D01*
X155230411Y-63693347D01*
X155295953Y-63649553D01*
X155339747Y-63584011D01*
X155339749Y-63584009D01*
X155439950Y-63434047D01*
X155469454Y-63389892D01*
X155515000Y-63160916D01*
X155515000Y-63160912D01*
X155530378Y-63083601D01*
X155515000Y-63006290D01*
X155515000Y-61935339D01*
X155780483Y-62576271D01*
X156437329Y-63233117D01*
X157295540Y-63588600D01*
X158224460Y-63588600D01*
X159082671Y-63233117D01*
X159739517Y-62576271D01*
X160095000Y-61718060D01*
X160095000Y-60938324D01*
X161675000Y-60938324D01*
X161675000Y-61568876D01*
X161916302Y-62151430D01*
X162362170Y-62597298D01*
X162944724Y-62838600D01*
X163575276Y-62838600D01*
X164157830Y-62597298D01*
X164603698Y-62151430D01*
X164839309Y-61582616D01*
X165010293Y-61753600D01*
X164609800Y-62154093D01*
X164376110Y-62718270D01*
X164376110Y-63328930D01*
X164609800Y-63893107D01*
X165010293Y-64293600D01*
X164609800Y-64694093D01*
X164376110Y-65258270D01*
X164376110Y-65868930D01*
X164609800Y-66433107D01*
X165010293Y-66833600D01*
X164609800Y-67234093D01*
X164376110Y-67798270D01*
X164376110Y-68408930D01*
X164609800Y-68973107D01*
X165010293Y-69373600D01*
X164609800Y-69774093D01*
X164376110Y-70338270D01*
X164376110Y-70948930D01*
X164609800Y-71513107D01*
X165010293Y-71913600D01*
X164609800Y-72314093D01*
X164376110Y-72878270D01*
X164376110Y-73488930D01*
X164609800Y-74053107D01*
X165010293Y-74453600D01*
X164609800Y-74854093D01*
X164376110Y-75418270D01*
X164376110Y-76028930D01*
X164609800Y-76593107D01*
X165010293Y-76993600D01*
X164609800Y-77394093D01*
X164472791Y-77724863D01*
X164157830Y-77409902D01*
X163575276Y-77168600D01*
X162944724Y-77168600D01*
X162362170Y-77409902D01*
X161916302Y-77855770D01*
X161675000Y-78438324D01*
X161675000Y-79068876D01*
X161916302Y-79651430D01*
X162362170Y-80097298D01*
X162944724Y-80338600D01*
X163575276Y-80338600D01*
X164157830Y-80097298D01*
X164603698Y-79651430D01*
X164757299Y-79280606D01*
X165010293Y-79533600D01*
X164609800Y-79934093D01*
X164376110Y-80498270D01*
X164376110Y-81108930D01*
X164609800Y-81673107D01*
X165010293Y-82073600D01*
X164609800Y-82474093D01*
X164376110Y-83038270D01*
X164376110Y-83648930D01*
X164609800Y-84213107D01*
X165010293Y-84613600D01*
X164609800Y-85014093D01*
X164376110Y-85578270D01*
X164376110Y-86188930D01*
X164609800Y-86753107D01*
X165010293Y-87153600D01*
X164609800Y-87554093D01*
X164376110Y-88118270D01*
X164376110Y-88728930D01*
X164609800Y-89293107D01*
X165010293Y-89693600D01*
X164609800Y-90094093D01*
X164376110Y-90658270D01*
X164376110Y-91268930D01*
X164609800Y-91833107D01*
X165010293Y-92233600D01*
X164609800Y-92634093D01*
X164376110Y-93198270D01*
X164376110Y-93808930D01*
X164609800Y-94373107D01*
X165041603Y-94804910D01*
X165605780Y-95038600D01*
X166216440Y-95038600D01*
X166780617Y-94804910D01*
X167212420Y-94373107D01*
X167446110Y-93808930D01*
X167446110Y-93198270D01*
X167212420Y-92634093D01*
X166811927Y-92233600D01*
X167212420Y-91833107D01*
X167446110Y-91268930D01*
X167446110Y-90658270D01*
X167212420Y-90094093D01*
X166811927Y-89693600D01*
X167212420Y-89293107D01*
X167446110Y-88728930D01*
X167446110Y-88118270D01*
X167212420Y-87554093D01*
X166811927Y-87153600D01*
X167212420Y-86753107D01*
X167446110Y-86188930D01*
X167446110Y-85578270D01*
X167212420Y-85014093D01*
X166811927Y-84613600D01*
X167212420Y-84213107D01*
X167446110Y-83648930D01*
X167446110Y-83038270D01*
X167212420Y-82474093D01*
X166811927Y-82073600D01*
X167212420Y-81673107D01*
X167446110Y-81108930D01*
X167446110Y-80498270D01*
X167212420Y-79934093D01*
X166811927Y-79533600D01*
X167212420Y-79133107D01*
X167446110Y-78568930D01*
X167446110Y-77958270D01*
X167212420Y-77394093D01*
X166811927Y-76993600D01*
X167212420Y-76593107D01*
X167446110Y-76028930D01*
X167446110Y-75418270D01*
X167212420Y-74854093D01*
X166811927Y-74453600D01*
X167212420Y-74053107D01*
X167446110Y-73488930D01*
X167446110Y-72878270D01*
X167212420Y-72314093D01*
X166811927Y-71913600D01*
X167212420Y-71513107D01*
X167446110Y-70948930D01*
X167446110Y-70338270D01*
X167212420Y-69774093D01*
X166811927Y-69373600D01*
X167212420Y-68973107D01*
X167446110Y-68408930D01*
X167446110Y-67798270D01*
X167212420Y-67234093D01*
X166811927Y-66833600D01*
X167212420Y-66433107D01*
X167446110Y-65868930D01*
X167446110Y-65258270D01*
X167212420Y-64694093D01*
X166811927Y-64293600D01*
X167212420Y-63893107D01*
X167446110Y-63328930D01*
X167446110Y-62718270D01*
X167212420Y-62154093D01*
X166811927Y-61753600D01*
X167212420Y-61353107D01*
X167446110Y-60788930D01*
X167446110Y-60178270D01*
X167212420Y-59614093D01*
X166811927Y-59213600D01*
X167212420Y-58813107D01*
X167446110Y-58248930D01*
X167446110Y-57638270D01*
X167212420Y-57074093D01*
X166811927Y-56673600D01*
X167212420Y-56273107D01*
X167446110Y-55708930D01*
X167446110Y-55098270D01*
X167212420Y-54534093D01*
X166780617Y-54102290D01*
X166216440Y-53868600D01*
X165605780Y-53868600D01*
X165041603Y-54102290D01*
X164609800Y-54534093D01*
X164376110Y-55098270D01*
X164376110Y-55708930D01*
X164609800Y-56273107D01*
X165010293Y-56673600D01*
X164609800Y-57074093D01*
X164376110Y-57638270D01*
X164376110Y-58248930D01*
X164609800Y-58813107D01*
X165010293Y-59213600D01*
X164609800Y-59614093D01*
X164390780Y-60142852D01*
X164157830Y-59909902D01*
X163575276Y-59668600D01*
X162944724Y-59668600D01*
X162362170Y-59909902D01*
X161916302Y-60355770D01*
X161675000Y-60938324D01*
X160095000Y-60938324D01*
X160095000Y-60789140D01*
X159739517Y-59930929D01*
X159082671Y-59274083D01*
X158224460Y-58918600D01*
X157295540Y-58918600D01*
X156437329Y-59274083D01*
X155780483Y-59930929D01*
X155515000Y-60571861D01*
X155515000Y-49600912D01*
X155530378Y-49523600D01*
X155515000Y-49446288D01*
X155515000Y-49446284D01*
X155490915Y-49325196D01*
X156109000Y-49325196D01*
X156109000Y-49982004D01*
X156360350Y-50588816D01*
X156824784Y-51053250D01*
X157431596Y-51304600D01*
X158088404Y-51304600D01*
X158695216Y-51053250D01*
X159159650Y-50588816D01*
X159411000Y-49982004D01*
X159411000Y-49325196D01*
X159159650Y-48718384D01*
X158695216Y-48253950D01*
X158088404Y-48002600D01*
X157431596Y-48002600D01*
X156824784Y-48253950D01*
X156360350Y-48718384D01*
X156109000Y-49325196D01*
X155490915Y-49325196D01*
X155469454Y-49217308D01*
X155295953Y-48957647D01*
X155230408Y-48913851D01*
X154348778Y-48032221D01*
X154411000Y-47882004D01*
X154411000Y-47225196D01*
X154159650Y-46618384D01*
X153695216Y-46153950D01*
X153088404Y-45902600D01*
X152431596Y-45902600D01*
X151824784Y-46153950D01*
X151360350Y-46618384D01*
X151109000Y-47225196D01*
X151109000Y-47882004D01*
X151360350Y-48488816D01*
X151824784Y-48953250D01*
X152431596Y-49204600D01*
X153088404Y-49204600D01*
X153238621Y-49142378D01*
X153945001Y-49848758D01*
X153945000Y-62758442D01*
X153238621Y-63464822D01*
X153088404Y-63402600D01*
X152431596Y-63402600D01*
X151824784Y-63653950D01*
X151360350Y-64118384D01*
X151109000Y-64725196D01*
X151109000Y-64775000D01*
X147124002Y-64775000D01*
X147065654Y-64634136D01*
X146605864Y-64174346D01*
X146005120Y-63925510D01*
X145354880Y-63925510D01*
X144754136Y-64174346D01*
X144294346Y-64634136D01*
X144293794Y-64635467D01*
X143951927Y-64293600D01*
X144352420Y-63893107D01*
X144586110Y-63328930D01*
X144586110Y-62718270D01*
X144352420Y-62154093D01*
X143951927Y-61753600D01*
X144352420Y-61353107D01*
X144524228Y-60938324D01*
X150675000Y-60938324D01*
X150675000Y-61568876D01*
X150916302Y-62151430D01*
X151362170Y-62597298D01*
X151944724Y-62838600D01*
X152575276Y-62838600D01*
X153157830Y-62597298D01*
X153603698Y-62151430D01*
X153845000Y-61568876D01*
X153845000Y-60938324D01*
X153603698Y-60355770D01*
X153157830Y-59909902D01*
X152575276Y-59668600D01*
X151944724Y-59668600D01*
X151362170Y-59909902D01*
X150916302Y-60355770D01*
X150675000Y-60938324D01*
X144524228Y-60938324D01*
X144586110Y-60788930D01*
X144586110Y-60178270D01*
X144352420Y-59614093D01*
X143951927Y-59213600D01*
X144352420Y-58813107D01*
X144586110Y-58248930D01*
X144586110Y-57638270D01*
X144352420Y-57074093D01*
X143920617Y-56642290D01*
X143900995Y-56634162D01*
X143928619Y-56552163D01*
X144707443Y-56552163D01*
X144806042Y-56818965D01*
X145415582Y-57045401D01*
X146065377Y-57021341D01*
X146553958Y-56818965D01*
X146652557Y-56552163D01*
X145680000Y-55579605D01*
X144707443Y-56552163D01*
X143928619Y-56552163D01*
X143951664Y-56483759D01*
X143051110Y-55583205D01*
X143036968Y-55597348D01*
X142857363Y-55417743D01*
X142871505Y-55403600D01*
X143230715Y-55403600D01*
X144131269Y-56304154D01*
X144256120Y-56262093D01*
X144261035Y-56273958D01*
X144527837Y-56372557D01*
X145500395Y-55400000D01*
X145859605Y-55400000D01*
X146832163Y-56372557D01*
X147098965Y-56273958D01*
X147325401Y-55664418D01*
X147301341Y-55014623D01*
X147098965Y-54526042D01*
X146832163Y-54427443D01*
X145859605Y-55400000D01*
X145500395Y-55400000D01*
X144527837Y-54427443D01*
X144261035Y-54526042D01*
X144254194Y-54544458D01*
X144131269Y-54503046D01*
X143230715Y-55403600D01*
X142871505Y-55403600D01*
X141970951Y-54503046D01*
X141714467Y-54589452D01*
X141504652Y-55162936D01*
X141521686Y-55568600D01*
X132386100Y-55568600D01*
X132386100Y-54323441D01*
X142150556Y-54323441D01*
X143051110Y-55223995D01*
X143951664Y-54323441D01*
X143926195Y-54247837D01*
X144707443Y-54247837D01*
X145680000Y-55220395D01*
X146652557Y-54247837D01*
X146553958Y-53981035D01*
X145944418Y-53754599D01*
X145294623Y-53778659D01*
X144806042Y-53981035D01*
X144707443Y-54247837D01*
X143926195Y-54247837D01*
X143865258Y-54066957D01*
X143291774Y-53857142D01*
X142681650Y-53882761D01*
X142236962Y-54066957D01*
X142150556Y-54323441D01*
X132386100Y-54323441D01*
X132386100Y-51309031D01*
X133966100Y-51309031D01*
X133966100Y-52198169D01*
X134306359Y-53019626D01*
X134935074Y-53648341D01*
X135756531Y-53988600D01*
X136645669Y-53988600D01*
X137467126Y-53648341D01*
X138095841Y-53019626D01*
X138436100Y-52198169D01*
X138436100Y-51309031D01*
X138095841Y-50487574D01*
X137467126Y-49858859D01*
X136645669Y-49518600D01*
X135756531Y-49518600D01*
X134935074Y-49858859D01*
X134306359Y-50487574D01*
X133966100Y-51309031D01*
X132386100Y-51309031D01*
X132386100Y-46628339D01*
X132743847Y-46986086D01*
X133344778Y-47235000D01*
X133995222Y-47235000D01*
X134596153Y-46986086D01*
X135056086Y-46526153D01*
X135305000Y-45925222D01*
X135305000Y-45306164D01*
X135374615Y-45335000D01*
X135965385Y-45335000D01*
X136511185Y-45108922D01*
X136928922Y-44691185D01*
X137155000Y-44145385D01*
X137155000Y-43554615D01*
X138185000Y-43554615D01*
X138185000Y-44145385D01*
X138411078Y-44691185D01*
X138828815Y-45108922D01*
X139374615Y-45335000D01*
X139965385Y-45335000D01*
X140511185Y-45108922D01*
X140928922Y-44691185D01*
X141155000Y-44145385D01*
X141155000Y-43554615D01*
X142185000Y-43554615D01*
X142185000Y-44145385D01*
X142411078Y-44691185D01*
X142828815Y-45108922D01*
X143374615Y-45335000D01*
X143965385Y-45335000D01*
X144035000Y-45306164D01*
X144035000Y-45925222D01*
X144283914Y-46526153D01*
X144743847Y-46986086D01*
X145344778Y-47235000D01*
X145995222Y-47235000D01*
X146596153Y-46986086D01*
X147056086Y-46526153D01*
X147305000Y-45925222D01*
X147305000Y-45274778D01*
X147056086Y-44673847D01*
X146596153Y-44213914D01*
X145995222Y-43965000D01*
X145344778Y-43965000D01*
X145155000Y-44043609D01*
X145155000Y-43554615D01*
X145106831Y-43438324D01*
X150675000Y-43438324D01*
X150675000Y-44068876D01*
X150916302Y-44651430D01*
X151362170Y-45097298D01*
X151944724Y-45338600D01*
X152575276Y-45338600D01*
X153157830Y-45097298D01*
X153603698Y-44651430D01*
X153845000Y-44068876D01*
X153845000Y-43438324D01*
X153783206Y-43289140D01*
X155425000Y-43289140D01*
X155425000Y-44218060D01*
X155780483Y-45076271D01*
X156437329Y-45733117D01*
X157295540Y-46088600D01*
X158224460Y-46088600D01*
X159082671Y-45733117D01*
X159739517Y-45076271D01*
X160095000Y-44218060D01*
X160095000Y-43438324D01*
X161675000Y-43438324D01*
X161675000Y-44068876D01*
X161916302Y-44651430D01*
X162362170Y-45097298D01*
X162944724Y-45338600D01*
X163575276Y-45338600D01*
X164157830Y-45097298D01*
X164603698Y-44651430D01*
X164845000Y-44068876D01*
X164845000Y-43438324D01*
X169175000Y-43438324D01*
X169175000Y-44068876D01*
X169416302Y-44651430D01*
X169862170Y-45097298D01*
X170444724Y-45338600D01*
X171075276Y-45338600D01*
X171657830Y-45097298D01*
X172103698Y-44651430D01*
X172345000Y-44068876D01*
X172345000Y-43438324D01*
X172283206Y-43289140D01*
X173925000Y-43289140D01*
X173925000Y-44218060D01*
X174280483Y-45076271D01*
X174937329Y-45733117D01*
X175795540Y-46088600D01*
X176724460Y-46088600D01*
X177582671Y-45733117D01*
X178239517Y-45076271D01*
X178595000Y-44218060D01*
X178595000Y-43438324D01*
X180175000Y-43438324D01*
X180175000Y-44068876D01*
X180416302Y-44651430D01*
X180862170Y-45097298D01*
X181444724Y-45338600D01*
X182075276Y-45338600D01*
X182657830Y-45097298D01*
X183103698Y-44651430D01*
X183345000Y-44068876D01*
X183345000Y-43438324D01*
X183103698Y-42855770D01*
X182657830Y-42409902D01*
X182075276Y-42168600D01*
X181444724Y-42168600D01*
X180862170Y-42409902D01*
X180416302Y-42855770D01*
X180175000Y-43438324D01*
X178595000Y-43438324D01*
X178595000Y-43289140D01*
X178239517Y-42430929D01*
X177582671Y-41774083D01*
X176724460Y-41418600D01*
X175795540Y-41418600D01*
X174937329Y-41774083D01*
X174280483Y-42430929D01*
X173925000Y-43289140D01*
X172283206Y-43289140D01*
X172103698Y-42855770D01*
X171657830Y-42409902D01*
X171075276Y-42168600D01*
X170444724Y-42168600D01*
X169862170Y-42409902D01*
X169416302Y-42855770D01*
X169175000Y-43438324D01*
X164845000Y-43438324D01*
X164603698Y-42855770D01*
X164157830Y-42409902D01*
X163575276Y-42168600D01*
X162944724Y-42168600D01*
X162362170Y-42409902D01*
X161916302Y-42855770D01*
X161675000Y-43438324D01*
X160095000Y-43438324D01*
X160095000Y-43289140D01*
X159739517Y-42430929D01*
X159082671Y-41774083D01*
X158224460Y-41418600D01*
X157295540Y-41418600D01*
X156437329Y-41774083D01*
X155780483Y-42430929D01*
X155425000Y-43289140D01*
X153783206Y-43289140D01*
X153603698Y-42855770D01*
X153157830Y-42409902D01*
X152575276Y-42168600D01*
X151944724Y-42168600D01*
X151362170Y-42409902D01*
X150916302Y-42855770D01*
X150675000Y-43438324D01*
X145106831Y-43438324D01*
X144928922Y-43008815D01*
X144511185Y-42591078D01*
X143965385Y-42365000D01*
X143374615Y-42365000D01*
X142828815Y-42591078D01*
X142411078Y-43008815D01*
X142185000Y-43554615D01*
X141155000Y-43554615D01*
X140928922Y-43008815D01*
X140511185Y-42591078D01*
X139965385Y-42365000D01*
X139374615Y-42365000D01*
X138828815Y-42591078D01*
X138411078Y-43008815D01*
X138185000Y-43554615D01*
X137155000Y-43554615D01*
X136928922Y-43008815D01*
X136511185Y-42591078D01*
X135965385Y-42365000D01*
X135374615Y-42365000D01*
X134828815Y-42591078D01*
X134411078Y-43008815D01*
X134185000Y-43554615D01*
X134185000Y-44043609D01*
X133995222Y-43965000D01*
X133344778Y-43965000D01*
X132743847Y-44213914D01*
X132386100Y-44571661D01*
X132386100Y-40628339D01*
X132743847Y-40986086D01*
X133344778Y-41235000D01*
X133995222Y-41235000D01*
X134596153Y-40986086D01*
X135056086Y-40526153D01*
X135305000Y-39925222D01*
X135305000Y-39274778D01*
X144035000Y-39274778D01*
X144035000Y-39925222D01*
X144283914Y-40526153D01*
X144743847Y-40986086D01*
X145344778Y-41235000D01*
X145995222Y-41235000D01*
X146596153Y-40986086D01*
X147056086Y-40526153D01*
X147305000Y-39925222D01*
X147305000Y-39274778D01*
X147215635Y-39059031D01*
X187766100Y-39059031D01*
X187766100Y-39948169D01*
X188106359Y-40769626D01*
X188735074Y-41398341D01*
X189556531Y-41738600D01*
X190445669Y-41738600D01*
X191267126Y-41398341D01*
X191895841Y-40769626D01*
X192236100Y-39948169D01*
X192236100Y-39059031D01*
X191895841Y-38237574D01*
X191267126Y-37608859D01*
X190445669Y-37268600D01*
X189556531Y-37268600D01*
X188735074Y-37608859D01*
X188106359Y-38237574D01*
X187766100Y-39059031D01*
X147215635Y-39059031D01*
X147056086Y-38673847D01*
X146596153Y-38213914D01*
X145995222Y-37965000D01*
X145344778Y-37965000D01*
X144743847Y-38213914D01*
X144283914Y-38673847D01*
X144035000Y-39274778D01*
X135305000Y-39274778D01*
X135056086Y-38673847D01*
X134596153Y-38213914D01*
X133995222Y-37965000D01*
X133344778Y-37965000D01*
X132743847Y-38213914D01*
X132386100Y-38571661D01*
X132386100Y-35688600D01*
X193816101Y-35688600D01*
X193816100Y-43318600D01*
G04 #@! TD*
M02*
